AES/UART_buffer/simulation/modelsim/tb.vcd
$date
	Sun Sep  7 23:49:51 2025
$end
$version
	ModelSim Version 2020.1
$end
$timescale
	1ps
$end

$scope module tb $end
$var reg 1 ! clk_3125_tx $end
$var reg 8 " data_tx [7:0] $end
$var reg 1 # parity_type $end
$var reg 1 $ parity_bit $end
$var reg 1 % tx_start $end
$var wire 1 & tx_line $end
$var reg 1 ' tx_exp $end
$var wire 1 ( tx_done $end
$var wire 1 ) tx_fifo_full $end
$var wire 1 * tx_fifo_empty $end
$var integer 32 + r_tx $end
$var integer 32 , i_tx $end
$var integer 32 - k_tx $end
$var integer 32 . j_tx $end
$var integer 32 / y_tx $end
$var integer 32 0 x_tx $end
$var integer 32 1 err_tx $end
$var integer 32 2 fd_tx $end
$var integer 32 3 fw_tx $end
$var reg 11 4 data_packet [10:0] $end
$var reg 100 5 file_data [99:0] $end
$var reg 80 6 str_tx [79:0] $end
$var reg 8 7 rev_msg [7:0] $end
$var reg 8 8 msg_tx [7:0] $end
$var reg 1 9 flag_tx $end
$var reg 1 : tx_done_flag $end
$var reg 1 ; clk_3125_rx $end
$var reg 1 < rx $end
$var wire 1 = rx_data_out [7] $end
$var wire 1 > rx_data_out [6] $end
$var wire 1 ? rx_data_out [5] $end
$var wire 1 @ rx_data_out [4] $end
$var wire 1 A rx_data_out [3] $end
$var wire 1 B rx_data_out [2] $end
$var wire 1 C rx_data_out [1] $end
$var wire 1 D rx_data_out [0] $end
$var wire 1 E rx_parity_out $end
$var wire 1 F rx_fifo_full $end
$var wire 1 G rx_fifo_empty $end
$var reg 1 H rx_read_en $end
$var reg 8 I rx_exp [7:0] $end
$var reg 1 J correct_parity $end
$var integer 32 K err_rx $end
$var reg 110 L str_rx [109:0] $end
$var reg 1 M flag_rx $end
$var reg 1 N sim_done $end
$var reg 1 O rx_done_flag $end
$var integer 32 P i_rx $end
$var integer 32 Q j_rx $end
$var integer 32 R k_rx $end
$var integer 32 S p_rx $end
$var integer 32 T fd_rx $end
$var integer 32 U fw_rx $end
$var integer 32 V s_rx $end
$var integer 32 W f_rx $end
$var integer 32 X bit_idx $end
$var reg 1 Y reset $end
$var reg 1 Z test_fifo_wr_en $end
$var reg 1 [ test_fifo_rd_en $end
$var reg 8 \ test_fifo_din [7:0] $end
$var wire 1 ] test_fifo_dout [7] $end
$var wire 1 ^ test_fifo_dout [6] $end
$var wire 1 _ test_fifo_dout [5] $end
$var wire 1 ` test_fifo_dout [4] $end
$var wire 1 a test_fifo_dout [3] $end
$var wire 1 b test_fifo_dout [2] $end
$var wire 1 c test_fifo_dout [1] $end
$var wire 1 d test_fifo_dout [0] $end
$var wire 1 e test_fifo_full $end
$var wire 1 f test_fifo_empty $end
$var integer 32 g fd $end
$var integer 32 h i $end
$var integer 32 i k $end
$var integer 32 j err $end
$var reg 100 k str [99:0] $end
$var integer 32 l num_data $end

$scope task reverse $end
$var reg 8 m in [7:0] $end
$var reg 8 n out [7:0] $end
$var integer 32 o r_tx2 $end
$upscope $end

$scope task send_data $end
$var reg 8 p msg_tx_task [7:0] $end
$var reg 1 q parity_bit_task $end
$var integer 32 r x_tx2 $end
$upscope $end

$scope module uut $end
$var wire 1 s clk_3125_tx $end
$var wire 1 t clk_3125_rx $end
$var wire 1 u reset $end
$var wire 1 v parity_type $end
$var wire 1 w tx_start $end
$var wire 1 x data [7] $end
$var wire 1 y data [6] $end
$var wire 1 z data [5] $end
$var wire 1 { data [4] $end
$var wire 1 | data [3] $end
$var wire 1 } data [2] $end
$var wire 1 ~ data [1] $end
$var wire 1 !! data [0] $end
$var wire 1 & tx_line $end
$var wire 1 ( tx_done $end
$var wire 1 ) tx_fifo_full $end
$var wire 1 * tx_fifo_empty $end
$var wire 1 "! rx $end
$var wire 1 = rx_data_out [7] $end
$var wire 1 > rx_data_out [6] $end
$var wire 1 ? rx_data_out [5] $end
$var wire 1 @ rx_data_out [4] $end
$var wire 1 A rx_data_out [3] $end
$var wire 1 B rx_data_out [2] $end
$var wire 1 C rx_data_out [1] $end
$var wire 1 D rx_data_out [0] $end
$var wire 1 E rx_parity_out $end
$var wire 1 F rx_fifo_full $end
$var wire 1 G rx_fifo_empty $end
$var wire 1 #! rx_read_en $end
$var wire 1 $! test_fifo_wr_en $end
$var wire 1 %! test_fifo_rd_en $end
$var wire 1 &! test_fifo_din [7] $end
$var wire 1 '! test_fifo_din [6] $end
$var wire 1 (! test_fifo_din [5] $end
$var wire 1 )! test_fifo_din [4] $end
$var wire 1 *! test_fifo_din [3] $end
$var wire 1 +! test_fifo_din [2] $end
$var wire 1 ,! test_fifo_din [1] $end
$var wire 1 -! test_fifo_din [0] $end
$var wire 1 ] test_fifo_dout [7] $end
$var wire 1 ^ test_fifo_dout [6] $end
$var wire 1 _ test_fifo_dout [5] $end
$var wire 1 ` test_fifo_dout [4] $end
$var wire 1 a test_fifo_dout [3] $end
$var wire 1 b test_fifo_dout [2] $end
$var wire 1 c test_fifo_dout [1] $end
$var wire 1 d test_fifo_dout [0] $end
$var wire 1 e test_fifo_full $end
$var wire 1 f test_fifo_empty $end
$var wire 1 .! tx_fifo_data_out [7] $end
$var wire 1 /! tx_fifo_data_out [6] $end
$var wire 1 0! tx_fifo_data_out [5] $end
$var wire 1 1! tx_fifo_data_out [4] $end
$var wire 1 2! tx_fifo_data_out [3] $end
$var wire 1 3! tx_fifo_data_out [2] $end
$var wire 1 4! tx_fifo_data_out [1] $end
$var wire 1 5! tx_fifo_data_out [0] $end
$var wire 1 6! tx_fifo_rd_en $end
$var wire 1 7! tx_fifo_wr_en $end
$var reg 1 8! tx_auto_send $end
$var reg 8 9! tx_current_data [7:0] $end
$var wire 1 :! rx_msg [7] $end
$var wire 1 ;! rx_msg [6] $end
$var wire 1 <! rx_msg [5] $end
$var wire 1 =! rx_msg [4] $end
$var wire 1 >! rx_msg [3] $end
$var wire 1 ?! rx_msg [2] $end
$var wire 1 @! rx_msg [1] $end
$var wire 1 A! rx_msg [0] $end
$var wire 1 B! rx_parity $end
$var wire 1 C! rx_complete $end
$var wire 1 D! rx_fifo_data_in [8] $end
$var wire 1 E! rx_fifo_data_in [7] $end
$var wire 1 F! rx_fifo_data_in [6] $end
$var wire 1 G! rx_fifo_data_in [5] $end
$var wire 1 H! rx_fifo_data_in [4] $end
$var wire 1 I! rx_fifo_data_in [3] $end
$var wire 1 J! rx_fifo_data_in [2] $end
$var wire 1 K! rx_fifo_data_in [1] $end
$var wire 1 L! rx_fifo_data_in [0] $end
$var wire 1 M! rx_fifo_data_out [8] $end
$var wire 1 N! rx_fifo_data_out [7] $end
$var wire 1 O! rx_fifo_data_out [6] $end
$var wire 1 P! rx_fifo_data_out [5] $end
$var wire 1 Q! rx_fifo_data_out [4] $end
$var wire 1 R! rx_fifo_data_out [3] $end
$var wire 1 S! rx_fifo_data_out [2] $end
$var wire 1 T! rx_fifo_data_out [1] $end
$var wire 1 U! rx_fifo_data_out [0] $end
$var wire 1 V! rx_fifo_wr_en $end
$var reg 1 W! tx_busy $end
$var reg 1 X! tx_done_prev $end

$scope module tx_fifo $end
$var parameter 32 Y! DEPTH $end
$var parameter 32 Z! ADDR_WIDTH $end
$var wire 1 s clk $end
$var wire 1 u reset $end
$var wire 1 [! wr_en $end
$var wire 1 6! rd_en $end
$var wire 1 x din [7] $end
$var wire 1 y din [6] $end
$var wire 1 z din [5] $end
$var wire 1 { din [4] $end
$var wire 1 | din [3] $end
$var wire 1 } din [2] $end
$var wire 1 ~ din [1] $end
$var wire 1 !! din [0] $end
$var reg 8 \! dout [7:0] $end
$var wire 1 ) full $end
$var wire 1 * empty $end
$var reg 4 ]! wr_ptr [3:0] $end
$var reg 4 ^! rd_ptr [3:0] $end
$var wire 1 _! wr_valid $end
$var wire 1 `! rd_valid $end
$upscope $end

$scope module rx_fifo $end
$var parameter 32 a! DEPTH $end
$var parameter 32 b! ADDR_WIDTH $end
$var wire 1 t clk $end
$var wire 1 u reset $end
$var wire 1 V! wr_en $end
$var wire 1 c! rd_en $end
$var wire 1 D! din [8] $end
$var wire 1 E! din [7] $end
$var wire 1 F! din [6] $end
$var wire 1 G! din [5] $end
$var wire 1 H! din [4] $end
$var wire 1 I! din [3] $end
$var wire 1 J! din [2] $end
$var wire 1 K! din [1] $end
$var wire 1 L! din [0] $end
$var reg 9 d! dout [8:0] $end
$var wire 1 F full $end
$var wire 1 G empty $end
$var reg 6 e! wr_ptr [5:0] $end
$var reg 6 f! rd_ptr [5:0] $end
$var wire 1 g! wr_valid $end
$var wire 1 h! rd_valid $end
$upscope $end

$scope module test_fifo $end
$var parameter 32 i! DEPTH $end
$var parameter 32 j! ADDR_WIDTH $end
$var wire 1 s clk $end
$var wire 1 u reset $end
$var wire 1 $! wr_en $end
$var wire 1 %! rd_en $end
$var wire 1 &! din [7] $end
$var wire 1 '! din [6] $end
$var wire 1 (! din [5] $end
$var wire 1 )! din [4] $end
$var wire 1 *! din [3] $end
$var wire 1 +! din [2] $end
$var wire 1 ,! din [1] $end
$var wire 1 -! din [0] $end
$var reg 8 k! dout [7:0] $end
$var wire 1 e full $end
$var wire 1 f empty $end
$var reg 4 l! wr_ptr [3:0] $end
$var reg 4 m! rd_ptr [3:0] $end
$var wire 1 n! wr_valid $end
$var wire 1 o! rd_valid $end
$upscope $end

$scope module tx_inst $end
$var parameter 32 p! CLOCKS_PER_BIT $end
$var parameter 32 q! FINAL_CYCLE $end
$var parameter 4 r! S_IDLE $end
$var parameter 4 s! S_START $end
$var parameter 4 t! S_DATA $end
$var parameter 4 u! S_PARITY $end
$var parameter 4 v! S_STOP $end
$var parameter 4 w! S_DONE $end
$var wire 1 s clk_3125_tx $end
$var wire 1 v parity_type $end
$var wire 1 x! tx_start $end
$var wire 1 y! data [7] $end
$var wire 1 z! data [6] $end
$var wire 1 {! data [5] $end
$var wire 1 |! data [4] $end
$var wire 1 }! data [3] $end
$var wire 1 ~! data [2] $end
$var wire 1 !" data [1] $end
$var wire 1 "" data [0] $end
$var reg 1 #" tx $end
$var reg 1 $" tx_done $end
$var reg 4 %" state [3:0] $end
$var reg 4 &" clk_counter [3:0] $end
$var reg 3 '" bit_counter [2:0] $end
$var reg 8 (" data_reg [7:0] $end
$var reg 1 )" parity_bit_reg $end
$upscope $end

$scope module rx_inst $end
$var parameter 32 *" CLOCKS_PER_BIT $end
$var parameter 32 +" FINAL_CYCLE $end
$var parameter 3 ," S_IDLE $end
$var parameter 3 -" S_START $end
$var parameter 3 ." S_DATA $end
$var parameter 3 /" S_PARITY $end
$var parameter 3 0" S_STOP $end
$var wire 1 t clk_3125_rx $end
$var wire 1 "! rx $end
$var reg 8 1" rx_msg [7:0] $end
$var reg 1 2" rx_parity $end
$var reg 1 3" rx_complete $end
$var reg 3 4" state [2:0] $end
$var reg 5 5" clk_counter [4:0] $end
$var reg 3 6" bit_counter [2:0] $end
$var reg 8 7" data_shift_reg [7:0] $end
$var reg 1 8" rx_start $end
$var reg 1 9" sampled_parity $end
$upscope $end
$upscope $end
$upscope $end
$enddefinitions $end
#0
$dumpvars
0!
b0 "
0#
0$
0%
1'
b0 4
b11110000100101100101001010011010010101001100 5
b0 6
b0 7
b0 8
09
0:
1;
1<
0H
b0 I
0J
bx L
0M
0N
0O
1Y
0Z
0[
b0 \
b11000000001010 k
08!
bx 9!
0W!
0X!
bx \!
bx ]!
bx ^!
b0 d!
b0 e!
b0 f!
bx k!
bx l!
bx m!
1#"
0$"
b0 %"
b0 &"
b0 '"
bx ("
x)"
b0 1"
02"
03"
b0 4"
b0 5"
b111 6"
b0 7"
x8"
x9"
bx m
bx n
bx p
xq
b1000 Y!
b11 Z!
b1000 a!
b101 b!
b1000 i!
b11 j!
b1110 p!
b1101 q!
b0 r!
b1 s!
b10 t!
b11 u!
b100 v!
b101 w!
b1110 *"
b1101 +"
b0 ,"
b1 -"
b10 ."
b11 /"
b100 0"
b0 +
b101100 ,
b0 -
b0 .
b0 /
b0 0
b0 1
b10000000000000000000000000000011 2
b0 3
b0 K
b0 P
b0 Q
b0 R
b0 S
b0 T
b0 U
b0 V
b0 W
b0 X
b10000000000000000000000000000011 g
b0 h
b0 i
b0 j
b100000 l
bx o
bx r
1&
0(
x)
x*
0D
0C
0B
0A
0@
0?
0>
0=
0E
0F
1G
xd
xc
xb
xa
x`
x_
x^
x]
xe
xf
x5!
x4!
x3!
x2!
x1!
x0!
x/!
x.!
06!
z7!
0A!
0@!
0?!
0>!
0=!
0<!
0;!
0:!
0B!
0C!
0L!
0K!
0J!
0I!
0H!
0G!
0F!
0E!
0D!
0U!
0T!
0S!
0R!
0Q!
0P!
0O!
0N!
0M!
0V!
0_!
0`!
0g!
0h!
0n!
0o!
0-!
0,!
0+!
0*!
0)!
0(!
0'!
0&!
0%!
0$!
0#!
1"!
0!!
0~
0}
0|
0{
0z
0y
0x
0w
0v
1u
1t
0s
x""
x!"
x~!
x}!
x|!
x{!
xz!
xy!
0x!
0c!
0[!
$end
#160000
1!
0;
1s
0t
b0 ]!
b0 ^!
b0 \!
b0 l!
b0 m!
b0 k!
b0 9!
1*
0)
1f
0e
0""
0!"
0~!
0}!
0|!
0{!
0z!
0y!
0d
0c
0b
0a
0`
0_
0^
0]
05!
04!
03!
02!
01!
00!
0/!
0.!
#320000
0!
1;
0s
1t
#480000
1!
0;
1s
0t
#640000
0!
1;
0s
1t
#800000
1!
0;
1s
0t
#960000
0!
1;
0s
1t
#1120000
1!
0;
1s
0t
#1280000
0!
1;
0s
1t
#1440000
1!
0;
1s
0t
#1600000
0!
1;
0s
1t
#1760000
1!
0;
1s
0t
#1920000
0!
1;
0s
1t
#2080000
1!
0;
1s
0t
#2240000
0!
1;
0s
1t
#2400000
1!
0;
1s
0t
#2560000
0!
1;
0s
1t
#2720000
1!
0;
1s
0t
#2880000
0!
1;
0s
1t
#3040000
1!
0;
1s
0t
#3200000
0!
1;
0s
1t
#3360000
1!
0;
1s
0t
#3520000
0!
1;
0s
1t
#3680000
1!
0;
1s
0t
#3840000
0!
1;
0s
1t
#4000000
1!
0;
1s
0t
#4160000
0!
1;
0s
1t
#4320000
1!
0;
1s
0t
#4480000
0!
1;
0s
1t
#4640000
1!
0;
1s
0t
#4800000
0!
1;
0s
1t
#4960000
1!
0;
1s
0t
#5000000
0Y
0u
#5120000
0!
1;
0s
1t
#5280000
1!
0;
1s
0t
#5440000
0!
1;
0s
1t
#5600000
1!
0;
1s
0t
#5760000
0!
1;
0s
1t
#5920000
1!
0;
1s
0t
#6080000
0!
1;
0s
1t
#6240000
1!
0;
1s
0t
#6400000
0!
1;
0s
1t
#6560000
1!
0;
1s
0t
#6720000
0!
1;
0s
1t
#6880000
1!
0;
1s
0t
#7040000
0!
1;
0s
1t
#7200000
1!
0;
1s
0t
#7360000
0!
1;
0s
1t
#7520000
1!
0;
1s
0t
#7680000
0!
1;
0s
1t
#7840000
1!
0;
1s
0t
#8000000
0!
1;
0s
1t
#8160000
1!
0;
1s
0t
#8320000
0!
1;
0s
1t
#8480000
1!
0;
1s
0t
1%
b0 m
b0 o
bx0 n
b1 o
bx00 n
b10 o
bx000 n
b11 o
bx0000 n
b100 o
bx00000 n
b101 o
bx000000 n
b110 o
bx0000000 n
b111 o
b0 n
b1000 o
1w
1[!
1_!
#8640000
0!
1;
0s
1t
#8800000
1!
0;
1s
0t
0%
b0 p
0q
b10000000000 4
b0 r
0'
0w
0[!
0_!
b1 1
b1 ]!
0*
#8960000
0!
1;
0s
1t
#9120000
1!
0;
1s
0t
18!
1W!
1x!
#9280000
0!
1;
0s
1t
#9440000
1!
0;
1s
0t
08!
b0 ("
0)"
b1 %"
0x!
0#"
0&
#9600000
0!
1;
0s
1t
#9760000
1!
0;
1s
0t
b1 &"
#9920000
0!
1;
0s
1t
#10080000
1!
0;
1s
0t
b10 &"
#10240000
0!
1;
0s
1t
#10400000
1!
0;
1s
0t
b11 &"
#10440000
0<
0"!
#10560000
0!
1;
0s
1t
b1 4"
#10720000
1!
0;
1s
0t
b100 &"
#10880000
0!
1;
0s
1t
b1 5"
#11040000
1!
0;
1s
0t
b101 &"
#11200000
0!
1;
0s
1t
b10 5"
#11360000
1!
0;
1s
0t
b110 &"
#11520000
0!
1;
0s
1t
b11 5"
#11680000
1!
0;
1s
0t
b111 &"
#11840000
0!
1;
0s
1t
b100 5"
#12000000
1!
0;
1s
0t
b1000 &"
#12160000
0!
1;
0s
1t
b101 5"
#12320000
1!
0;
1s
0t
b1001 &"
#12480000
0!
1;
0s
1t
b110 5"
#12640000
1!
0;
1s
0t
b1010 &"
#12800000
0!
1;
0s
1t
b0 5"
08"
b10 4"
#12960000
1!
0;
1s
0t
19
b1011 &"
#13120000
0!
1;
0s
1t
b1 5"
#13280000
1!
0;
1s
0t
09
b1 r
b1100 &"
#13440000
0!
1;
0s
1t
b10 5"
#13600000
1!
0;
1s
0t
b1101 &"
#13760000
0!
1;
0s
1t
b11 5"
#13920000
1!
0;
1s
0t
b0 &"
b10 %"
b111 '"
#14080000
0!
1;
0s
1t
b100 5"
#14240000
1!
0;
1s
0t
b1 &"
#14400000
0!
1;
0s
1t
b101 5"
#14560000
1!
0;
1s
0t
b10 &"
#14720000
0!
1;
0s
1t
b110 5"
#14880000
1!
0;
1s
0t
b11 &"
#15040000
0!
1;
0s
1t
b111 5"
#15200000
1!
0;
1s
0t
b100 &"
#15360000
0!
1;
0s
1t
b1000 5"
#15520000
1!
0;
1s
0t
b101 &"
#15680000
0!
1;
0s
1t
b1001 5"
#15840000
1!
0;
1s
0t
b110 &"
#16000000
0!
1;
0s
1t
b1010 5"
#16160000
1!
0;
1s
0t
b111 &"
#16320000
0!
1;
0s
1t
b1011 5"
#16480000
1!
0;
1s
0t
b1000 &"
#16640000
0!
1;
0s
1t
b1100 5"
#16800000
1!
0;
1s
0t
b1001 &"
#16960000
0!
1;
0s
1t
b1101 5"
#17120000
1!
0;
1s
0t
b1010 &"
#17280000
0!
1;
0s
1t
b0 5"
b110 6"
#17440000
1!
0;
1s
0t
19
b1011 &"
#17600000
0!
1;
0s
1t
b1 5"
#17760000
1!
0;
1s
0t
09
b10 r
b1100 &"
#17920000
0!
1;
0s
1t
b10 5"
#18080000
1!
0;
1s
0t
b1101 &"
#18240000
0!
1;
0s
1t
b11 5"
#18400000
1!
0;
1s
0t
b0 &"
b110 '"
#18560000
0!
1;
0s
1t
b100 5"
#18720000
1!
0;
1s
0t
b1 &"
#18880000
0!
1;
0s
1t
b101 5"
#19040000
1!
0;
1s
0t
b10 &"
#19200000
0!
1;
0s
1t
b110 5"
#19360000
1!
0;
1s
0t
b11 &"
#19520000
0!
1;
0s
1t
b111 5"
#19680000
1!
0;
1s
0t
b100 &"
#19840000
0!
1;
0s
1t
b1000 5"
#20000000
1!
0;
1s
0t
b101 &"
#20160000
0!
1;
0s
1t
b1001 5"
#20320000
1!
0;
1s
0t
b110 &"
#20480000
0!
1;
0s
1t
b1010 5"
#20640000
1!
0;
1s
0t
b111 &"
#20800000
0!
1;
0s
1t
b1011 5"
#20960000
1!
0;
1s
0t
b1000 &"
#21120000
0!
1;
0s
1t
b1100 5"
#21280000
1!
0;
1s
0t
b1001 &"
#21440000
0!
1;
0s
1t
b1101 5"
#21600000
1!
0;
1s
0t
b1010 &"
#21760000
0!
1;
0s
1t
b0 5"
b101 6"
#21920000
1!
0;
1s
0t
19
b1011 &"
#22080000
0!
1;
0s
1t
b1 5"
#22240000
1!
0;
1s
0t
09
b11 r
b1100 &"
#22400000
0!
1;
0s
1t
b10 5"
#22560000
1!
0;
1s
0t
b1101 &"
#22720000
0!
1;
0s
1t
b11 5"
#22880000
1!
0;
1s
0t
b0 &"
b101 '"
#23040000
0!
1;
0s
1t
b100 5"
#23200000
1!
0;
1s
0t
b1 &"
#23360000
0!
1;
0s
1t
b101 5"
#23520000
1!
0;
1s
0t
b10 &"
#23680000
0!
1;
0s
1t
b110 5"
#23840000
1!
0;
1s
0t
b11 &"
#24000000
0!
1;
0s
1t
b111 5"
#24160000
1!
0;
1s
0t
b100 &"
#24320000
0!
1;
0s
1t
b1000 5"
#24480000
1!
0;
1s
0t
b101 &"
#24640000
0!
1;
0s
1t
b1001 5"
#24800000
1!
0;
1s
0t
b110 &"
#24960000
0!
1;
0s
1t
b1010 5"
#25120000
1!
0;
1s
0t
b111 &"
#25280000
0!
1;
0s
1t
b1011 5"
#25440000
1!
0;
1s
0t
b1000 &"
#25600000
0!
1;
0s
1t
b1100 5"
#25760000
1!
0;
1s
0t
b1001 &"
#25920000
0!
1;
0s
1t
b1101 5"
#26080000
1!
0;
1s
0t
b1010 &"
#26240000
0!
1;
0s
1t
b0 5"
b100 6"
#26400000
1!
0;
1s
0t
19
b1011 &"
#26560000
0!
1;
0s
1t
b1 5"
#26720000
1!
0;
1s
0t
09
b100 r
b1100 &"
#26880000
0!
1;
0s
1t
b10 5"
#27040000
1!
0;
1s
0t
b1101 &"
#27200000
0!
1;
0s
1t
b11 5"
#27360000
1!
0;
1s
0t
b0 &"
b100 '"
#27520000
0!
1;
0s
1t
b100 5"
#27680000
1!
0;
1s
0t
b1 &"
#27840000
0!
1;
0s
1t
b101 5"
#28000000
1!
0;
1s
0t
b10 &"
#28160000
0!
1;
0s
1t
b110 5"
#28320000
1!
0;
1s
0t
b11 &"
#28480000
0!
1;
0s
1t
b111 5"
#28640000
1!
0;
1s
0t
b100 &"
#28800000
0!
1;
0s
1t
b1000 5"
#28960000
1!
0;
1s
0t
b101 &"
#29120000
0!
1;
0s
1t
b1001 5"
#29280000
1!
0;
1s
0t
b110 &"
#29440000
0!
1;
0s
1t
b1010 5"
#29600000
1!
0;
1s
0t
b111 &"
#29760000
0!
1;
0s
1t
b1011 5"
#29920000
1!
0;
1s
0t
b1000 &"
#30080000
0!
1;
0s
1t
b1100 5"
#30240000
1!
0;
1s
0t
b1001 &"
#30400000
0!
1;
0s
1t
b1101 5"
#30560000
1!
0;
1s
0t
b1010 &"
#30720000
0!
1;
0s
1t
b0 5"
b11 6"
#30880000
1!
0;
1s
0t
19
b1011 &"
#31040000
0!
1;
0s
1t
b1 5"
#31200000
1!
0;
1s
0t
09
b101 r
b1100 &"
#31360000
0!
1;
0s
1t
b10 5"
#31520000
1!
0;
1s
0t
b1101 &"
#31680000
0!
1;
0s
1t
b11 5"
#31840000
1!
0;
1s
0t
b0 &"
b11 '"
#32000000
0!
1;
0s
1t
b100 5"
#32160000
1!
0;
1s
0t
b1 &"
#32320000
0!
1;
0s
1t
b101 5"
#32480000
1!
0;
1s
0t
b10 &"
#32640000
0!
1;
0s
1t
b110 5"
#32800000
1!
0;
1s
0t
b11 &"
#32960000
0!
1;
0s
1t
b111 5"
#33120000
1!
0;
1s
0t
b100 &"
#33280000
0!
1;
0s
1t
b1000 5"
#33440000
1!
0;
1s
0t
b101 &"
#33600000
0!
1;
0s
1t
b1001 5"
#33760000
1!
0;
1s
0t
b110 &"
#33920000
0!
1;
0s
1t
b1010 5"
#34080000
1!
0;
1s
0t
b111 &"
#34240000
0!
1;
0s
1t
b1011 5"
#34400000
1!
0;
1s
0t
b1000 &"
#34560000
0!
1;
0s
1t
b1100 5"
#34720000
1!
0;
1s
0t
b1001 &"
#34880000
0!
1;
0s
1t
b1101 5"
#35040000
1!
0;
1s
0t
b1010 &"
#35200000
0!
1;
0s
1t
b0 5"
b10 6"
#35360000
1!
0;
1s
0t
19
b1011 &"
#35520000
0!
1;
0s
1t
b1 5"
#35680000
1!
0;
1s
0t
09
b110 r
b1100 &"
#35840000
0!
1;
0s
1t
b10 5"
#36000000
1!
0;
1s
0t
b1101 &"
#36160000
0!
1;
0s
1t
b11 5"
#36320000
1!
0;
1s
0t
b0 &"
b10 '"
#36480000
0!
1;
0s
1t
b100 5"
#36640000
1!
0;
1s
0t
b1 &"
#36800000
0!
1;
0s
1t
b101 5"
#36960000
1!
0;
1s
0t
b10 &"
#37120000
0!
1;
0s
1t
b110 5"
#37280000
1!
0;
1s
0t
1Z
1$!
1n!
b11 &"
#37440000
0!
1;
0s
1t
b111 5"
#37600000
1!
0;
1s
0t
0Z
0$!
0n!
b1 l!
b100 &"
0f
#37760000
0!
1;
0s
1t
b1000 5"
#37920000
1!
0;
1s
0t
b101 &"
#38080000
0!
1;
0s
1t
b1001 5"
#38240000
1!
0;
1s
0t
b110 &"
#38400000
0!
1;
0s
1t
b1010 5"
#38560000
1!
0;
1s
0t
b111 &"
#38720000
0!
1;
0s
1t
b1011 5"
#38880000
1!
0;
1s
0t
b1000 &"
#39040000
0!
1;
0s
1t
b1100 5"
#39200000
1!
0;
1s
0t
b1001 &"
#39360000
0!
1;
0s
1t
b1101 5"
#39520000
1!
0;
1s
0t
b1010 &"
#39680000
0!
1;
0s
1t
b0 5"
b1 6"
#39840000
1!
0;
1s
0t
19
b1011 &"
#40000000
0!
1;
0s
1t
b1 5"
#40160000
1!
0;
1s
0t
09
b111 r
b1100 &"
#40320000
0!
1;
0s
1t
b10 5"
#40480000
1!
0;
1s
0t
b1101 &"
#40640000
0!
1;
0s
1t
b11 5"
#40800000
1!
0;
1s
0t
b1 i
1Z
1$!
1n!
b0 &"
b1 '"
#40960000
0!
1;
0s
1t
b100 5"
#41120000
1!
0;
1s
0t
0Z
0$!
0n!
b10 l!
b1 &"
#41280000
0!
1;
0s
1t
b101 5"
#41440000
1!
0;
1s
0t
b10 &"
#41600000
0!
1;
0s
1t
b110 5"
#41760000
1!
0;
1s
0t
b11 &"
#41920000
0!
1;
0s
1t
b111 5"
#42080000
1!
0;
1s
0t
b100 &"
#42240000
0!
1;
0s
1t
b1000 5"
#42400000
1!
0;
1s
0t
b101 &"
#42560000
0!
1;
0s
1t
b1001 5"
#42720000
1!
0;
1s
0t
b110 &"
#42880000
0!
1;
0s
1t
b1010 5"
#43040000
1!
0;
1s
0t
b111 &"
#43200000
0!
1;
0s
1t
b1011 5"
#43360000
1!
0;
1s
0t
b1000 &"
#43520000
0!
1;
0s
1t
b1100 5"
#43680000
1!
0;
1s
0t
b1001 &"
#43840000
0!
1;
0s
1t
b1101 5"
#44000000
1!
0;
1s
0t
b1010 &"
#44160000
0!
1;
0s
1t
b0 5"
b0 6"
#44320000
1!
0;
1s
0t
b10 i
b1 \
1Z
19
1-!
1$!
1n!
b1011 &"
#44480000
0!
1;
0s
1t
b1 5"
#44640000
1!
0;
1s
0t
09
b1000 r
0Z
0$!
0n!
b11 l!
b1100 &"
#44800000
0!
1;
0s
1t
b10 5"
#44960000
1!
0;
1s
0t
b1101 &"
#45120000
0!
1;
0s
1t
b11 5"
#45280000
1!
0;
1s
0t
b0 &"
b0 '"
#45440000
0!
1;
0s
1t
b100 5"
#45600000
1!
0;
1s
0t
b1 &"
#45760000
0!
1;
0s
1t
b101 5"
#45920000
1!
0;
1s
0t
b10 &"
#46080000
0!
1;
0s
1t
b110 5"
#46240000
1!
0;
1s
0t
b11 &"
#46400000
0!
1;
0s
1t
b111 5"
#46560000
1!
0;
1s
0t
b100 &"
#46720000
0!
1;
0s
1t
b1000 5"
#46880000
1!
0;
1s
0t
b101 &"
#47040000
0!
1;
0s
1t
b1001 5"
#47200000
1!
0;
1s
0t
b110 &"
#47360000
0!
1;
0s
1t
b1010 5"
#47520000
1!
0;
1s
0t
b111 &"
#47680000
0!
1;
0s
1t
b1011 5"
#47840000
1!
0;
1s
0t
b11 i
1Z
1$!
1n!
b1000 &"
#48000000
0!
1;
0s
1t
b1100 5"
#48160000
1!
0;
1s
0t
0Z
0$!
0n!
b100 l!
b1001 &"
#48320000
0!
1;
0s
1t
b1101 5"
#48480000
1!
0;
1s
0t
b1010 &"
#48640000
0!
1;
0s
1t
b0 5"
b11 4"
#48800000
1!
0;
1s
0t
19
b1011 &"
#48960000
0!
1;
0s
1t
b1 5"
#49120000
1!
0;
1s
0t
09
b1001 r
b1100 &"
#49280000
0!
1;
0s
1t
b10 5"
#49440000
1!
0;
1s
0t
b1101 &"
#49600000
0!
1;
0s
1t
b11 5"
#49760000
1!
0;
1s
0t
b0 &"
b11 %"
#49920000
0!
1;
0s
1t
b100 5"
#50080000
1!
0;
1s
0t
b1 &"
#50240000
0!
1;
0s
1t
b101 5"
#50400000
1!
0;
1s
0t
b10 &"
#50560000
0!
1;
0s
1t
b110 5"
#50720000
1!
0;
1s
0t
b11 &"
#50880000
0!
1;
0s
1t
b111 5"
#51040000
1!
0;
1s
0t
b100 &"
#51200000
0!
1;
0s
1t
b1000 5"
#51360000
1!
0;
1s
0t
b100 i
b0 \
1Z
0-!
1$!
1n!
b101 &"
#51520000
0!
1;
0s
1t
b1001 5"
#51680000
1!
0;
1s
0t
0Z
0$!
0n!
b101 l!
b110 &"
#51840000
0!
1;
0s
1t
b1010 5"
#52000000
1!
0;
1s
0t
b111 &"
#52160000
0!
1;
0s
1t
b1011 5"
#52320000
1!
0;
1s
0t
b1000 &"
#52480000
0!
1;
0s
1t
b1100 5"
#52640000
1!
0;
1s
0t
b1001 &"
#52800000
0!
1;
0s
1t
b1101 5"
#52960000
1!
0;
1s
0t
b1010 &"
#53120000
0!
1;
0s
1t
09"
b0 5"
b100 4"
#53280000
1!
0;
1s
0t
19
b1011 &"
#53440000
0!
1;
0s
1t
b1 5"
#53600000
1!
0;
1s
0t
09
b1010 r
1'
b10 1
b1100 &"
#53760000
0!
1;
0s
1t
b10 5"
#53920000
1!
0;
1s
0t
b1101 &"
#54080000
0!
1;
0s
1t
b11 5"
#54240000
1!
0;
1s
0t
b0 &"
b100 %"
1#"
1&
#54400000
0!
1;
0s
1t
b100 5"
#54560000
1!
0;
1s
0t
b1 &"
#54720000
0!
1;
0s
1t
b101 5"
#54880000
1!
0;
1s
0t
b101 i
1Z
1$!
1n!
b10 &"
