AES/UART_buffer/simulation/modelsim/tb_bit_level.vcd
$date
	Mon Sep  8 00:10:28 2025
$end
$version
	ModelSim Version 2020.1
$end
$timescale
	1ps
$end

$scope module tb $end
$var reg 1 ! clk_3125_tx $end
$var reg 1 " clk_3125_rx $end
$var reg 1 # reset $end
$var reg 8 $ data_tx [7:0] $end
$var reg 1 % parity_type $end
$var reg 1 & tx_start $end
$var wire 1 ' tx_line $end
$var wire 1 ( tx_done $end
$var wire 1 ) tx_fifo_full $end
$var wire 1 * tx_fifo_empty $end
$var reg 1 + tx_exp $end
$var reg 11 , tx_data_packet [10:0] $end
$var reg 8 - tx_msg [7:0] $end
$var reg 1 . tx_parity_bit $end
$var integer 32 / tx_data_count $end
$var integer 32 0 tx_send_index $end
$var integer 32 1 tx_bit_index $end
$var integer 32 2 tx_clk_counter $end
$var integer 32 3 tx_bit_errors $end
$var reg 1 4 tx_generating_expected $end
$var reg 1 5 tx_done_flag $end
$var integer 32 6 bit_pos $end
$var integer 32 7 clk_cnt $end
$var integer 32 8 loop_i $end
$var reg 1 9 rx $end
$var wire 1 : rx_data_out [7] $end
$var wire 1 ; rx_data_out [6] $end
$var wire 1 < rx_data_out [5] $end
$var wire 1 = rx_data_out [4] $end
$var wire 1 > rx_data_out [3] $end
$var wire 1 ? rx_data_out [2] $end
$var wire 1 @ rx_data_out [1] $end
$var wire 1 A rx_data_out [0] $end
$var wire 1 B rx_parity_out $end
$var wire 1 C rx_fifo_full $end
$var wire 1 D rx_fifo_empty $end
$var reg 1 E rx_read_en $end
$var reg 1 F rx_exp $end
$var reg 11 G rx_data_packet [10:0] $end
$var reg 8 H rx_msg [7:0] $end
$var reg 1 I rx_parity_bit $end
$var integer 32 J rx_data_count $end
$var integer 32 K rx_send_index $end
$var integer 32 L rx_bit_index $end
$var integer 32 M rx_clk_counter $end
$var integer 32 N rx_bit_errors $end
$var reg 1 O rx_generating_expected $end
$var reg 1 P rx_done_flag $end
$var reg 1 Q test_fifo_wr_en $end
$var reg 1 R test_fifo_rd_en $end
$var reg 8 S test_fifo_din [7:0] $end
$var wire 1 T test_fifo_dout [7] $end
$var wire 1 U test_fifo_dout [6] $end
$var wire 1 V test_fifo_dout [5] $end
$var wire 1 W test_fifo_dout [4] $end
$var wire 1 X test_fifo_dout [3] $end
$var wire 1 Y test_fifo_dout [2] $end
$var wire 1 Z test_fifo_dout [1] $end
$var wire 1 [ test_fifo_dout [0] $end
$var wire 1 \ test_fifo_full $end
$var wire 1 ] test_fifo_empty $end
$var integer 32 ^ test_fifo_count $end
$var integer 32 _ test_fifo_errors $end
$var integer 32 ` test_fifo_index $end

$scope module uut $end
$var wire 1 a clk_3125_tx $end
$var wire 1 b clk_3125_rx $end
$var wire 1 c reset $end
$var wire 1 d parity_type $end
$var wire 1 e tx_start $end
$var wire 1 f data [7] $end
$var wire 1 g data [6] $end
$var wire 1 h data [5] $end
$var wire 1 i data [4] $end
$var wire 1 j data [3] $end
$var wire 1 k data [2] $end
$var wire 1 l data [1] $end
$var wire 1 m data [0] $end
$var wire 1 ' tx_line $end
$var wire 1 ( tx_done $end
$var wire 1 ) tx_fifo_full $end
$var wire 1 * tx_fifo_empty $end
$var wire 1 n rx $end
$var wire 1 : rx_data_out [7] $end
$var wire 1 ; rx_data_out [6] $end
$var wire 1 < rx_data_out [5] $end
$var wire 1 = rx_data_out [4] $end
$var wire 1 > rx_data_out [3] $end
$var wire 1 ? rx_data_out [2] $end
$var wire 1 @ rx_data_out [1] $end
$var wire 1 A rx_data_out [0] $end
$var wire 1 B rx_parity_out $end
$var wire 1 C rx_fifo_full $end
$var wire 1 D rx_fifo_empty $end
$var wire 1 o rx_read_en $end
$var wire 1 p test_fifo_wr_en $end
$var wire 1 q test_fifo_rd_en $end
$var wire 1 r test_fifo_din [7] $end
$var wire 1 s test_fifo_din [6] $end
$var wire 1 t test_fifo_din [5] $end
$var wire 1 u test_fifo_din [4] $end
$var wire 1 v test_fifo_din [3] $end
$var wire 1 w test_fifo_din [2] $end
$var wire 1 x test_fifo_din [1] $end
$var wire 1 y test_fifo_din [0] $end
$var wire 1 T test_fifo_dout [7] $end
$var wire 1 U test_fifo_dout [6] $end
$var wire 1 V test_fifo_dout [5] $end
$var wire 1 W test_fifo_dout [4] $end
$var wire 1 X test_fifo_dout [3] $end
$var wire 1 Y test_fifo_dout [2] $end
$var wire 1 Z test_fifo_dout [1] $end
$var wire 1 [ test_fifo_dout [0] $end
$var wire 1 \ test_fifo_full $end
$var wire 1 ] test_fifo_empty $end
$var wire 1 z tx_fifo_data_out [7] $end
$var wire 1 { tx_fifo_data_out [6] $end
$var wire 1 | tx_fifo_data_out [5] $end
$var wire 1 } tx_fifo_data_out [4] $end
$var wire 1 ~ tx_fifo_data_out [3] $end
$var wire 1 !! tx_fifo_data_out [2] $end
$var wire 1 "! tx_fifo_data_out [1] $end
$var wire 1 #! tx_fifo_data_out [0] $end
$var wire 1 $! tx_fifo_rd_en $end
$var wire 1 %! tx_fifo_wr_en $end
$var reg 1 &! tx_auto_send $end
$var reg 8 '! tx_current_data [7:0] $end
$var wire 1 (! rx_msg [7] $end
$var wire 1 )! rx_msg [6] $end
$var wire 1 *! rx_msg [5] $end
$var wire 1 +! rx_msg [4] $end
$var wire 1 ,! rx_msg [3] $end
$var wire 1 -! rx_msg [2] $end
$var wire 1 .! rx_msg [1] $end
$var wire 1 /! rx_msg [0] $end
$var wire 1 0! rx_parity $end
$var wire 1 1! rx_complete $end
$var wire 1 2! rx_fifo_data_in [8] $end
$var wire 1 3! rx_fifo_data_in [7] $end
$var wire 1 4! rx_fifo_data_in [6] $end
$var wire 1 5! rx_fifo_data_in [5] $end
$var wire 1 6! rx_fifo_data_in [4] $end
$var wire 1 7! rx_fifo_data_in [3] $end
$var wire 1 8! rx_fifo_data_in [2] $end
$var wire 1 9! rx_fifo_data_in [1] $end
$var wire 1 :! rx_fifo_data_in [0] $end
$var wire 1 ;! rx_fifo_data_out [8] $end
$var wire 1 <! rx_fifo_data_out [7] $end
$var wire 1 =! rx_fifo_data_out [6] $end
$var wire 1 >! rx_fifo_data_out [5] $end
$var wire 1 ?! rx_fifo_data_out [4] $end
$var wire 1 @! rx_fifo_data_out [3] $end
$var wire 1 A! rx_fifo_data_out [2] $end
$var wire 1 B! rx_fifo_data_out [1] $end
$var wire 1 C! rx_fifo_data_out [0] $end
$var wire 1 D! rx_fifo_wr_en $end
$var reg 1 E! tx_busy $end
$var reg 1 F! tx_done_prev $end

$scope module tx_fifo $end
$var parameter 32 G! DEPTH $end
$var parameter 32 H! ADDR_WIDTH $end
$var wire 1 a clk $end
$var wire 1 c reset $end
$var wire 1 I! wr_en $end
$var wire 1 $! rd_en $end
$var wire 1 f din [7] $end
$var wire 1 g din [6] $end
$var wire 1 h din [5] $end
$var wire 1 i din [4] $end
$var wire 1 j din [3] $end
$var wire 1 k din [2] $end
$var wire 1 l din [1] $end
$var wire 1 m din [0] $end
$var reg 8 J! dout [7:0] $end
$var wire 1 ) full $end
$var wire 1 * empty $end
$var reg 4 K! wr_ptr [3:0] $end
$var reg 4 L! rd_ptr [3:0] $end
$var wire 1 M! wr_valid $end
$var wire 1 N! rd_valid $end
$upscope $end

$scope module rx_fifo $end
$var parameter 32 O! DEPTH $end
$var parameter 32 P! ADDR_WIDTH $end
$var wire 1 b clk $end
$var wire 1 c reset $end
$var wire 1 D! wr_en $end
$var wire 1 Q! rd_en $end
$var wire 1 2! din [8] $end
$var wire 1 3! din [7] $end
$var wire 1 4! din [6] $end
$var wire 1 5! din [5] $end
$var wire 1 6! din [4] $end
$var wire 1 7! din [3] $end
$var wire 1 8! din [2] $end
$var wire 1 9! din [1] $end
$var wire 1 :! din [0] $end
$var reg 9 R! dout [8:0] $end
$var wire 1 C full $end
$var wire 1 D empty $end
$var reg 6 S! wr_ptr [5:0] $end
$var reg 6 T! rd_ptr [5:0] $end
$var wire 1 U! wr_valid $end
$var wire 1 V! rd_valid $end
$upscope $end

$scope module test_fifo $end
$var parameter 32 W! DEPTH $end
$var parameter 32 X! ADDR_WIDTH $end
$var wire 1 a clk $end
$var wire 1 c reset $end
$var wire 1 p wr_en $end
$var wire 1 q rd_en $end
$var wire 1 r din [7] $end
$var wire 1 s din [6] $end
$var wire 1 t din [5] $end
$var wire 1 u din [4] $end
$var wire 1 v din [3] $end
$var wire 1 w din [2] $end
$var wire 1 x din [1] $end
$var wire 1 y din [0] $end
$var reg 8 Y! dout [7:0] $end
$var wire 1 \ full $end
$var wire 1 ] empty $end
$var reg 4 Z! wr_ptr [3:0] $end
$var reg 4 [! rd_ptr [3:0] $end
$var wire 1 \! wr_valid $end
$var wire 1 ]! rd_valid $end
$upscope $end

$scope module tx_inst $end
$var parameter 32 ^! CLOCKS_PER_BIT $end
$var parameter 32 _! FINAL_CYCLE $end
$var parameter 4 `! S_IDLE $end
$var parameter 4 a! S_START $end
$var parameter 4 b! S_DATA $end
$var parameter 4 c! S_PARITY $end
$var parameter 4 d! S_STOP $end
$var parameter 4 e! S_DONE $end
$var wire 1 a clk_3125_tx $end
$var wire 1 d parity_type $end
$var wire 1 f! tx_start $end
$var wire 1 g! data [7] $end
$var wire 1 h! data [6] $end
$var wire 1 i! data [5] $end
$var wire 1 j! data [4] $end
$var wire 1 k! data [3] $end
$var wire 1 l! data [2] $end
$var wire 1 m! data [1] $end
$var wire 1 n! data [0] $end
$var reg 1 o! tx $end
$var reg 1 p! tx_done $end
$var reg 4 q! state [3:0] $end
$var reg 4 r! clk_counter [3:0] $end
$var reg 3 s! bit_counter [2:0] $end
$var reg 8 t! data_reg [7:0] $end
$var reg 1 u! parity_bit_reg $end
$upscope $end

$scope module rx_inst $end
$var parameter 32 v! CLOCKS_PER_BIT $end
$var parameter 32 w! FINAL_CYCLE $end
$var parameter 3 x! S_IDLE $end
$var parameter 3 y! S_START $end
$var parameter 3 z! S_DATA $end
$var parameter 3 {! S_PARITY $end
$var parameter 3 |! S_STOP $end
$var wire 1 b clk_3125_rx $end
$var wire 1 n rx $end
$var reg 8 }! rx_msg [7:0] $end
$var reg 1 ~! rx_parity $end
$var reg 1 !" rx_complete $end
$var reg 3 "" state [2:0] $end
$var reg 5 #" clk_counter [4:0] $end
$var reg 3 $" bit_counter [2:0] $end
$var reg 8 %" data_shift_reg [7:0] $end
$var reg 1 &" rx_start $end
$var reg 1 '" sampled_parity $end
$upscope $end
$upscope $end
$upscope $end
$enddefinitions $end
#0
$dumpvars
1!
0"
1#
b0 $
0%
0&
1+
bx ,
bx -
x.
04
05
19
0E
1F
bx G
bx H
xI
0O
0P
0Q
0R
b0 S
0&!
b0 '!
0E!
0F!
b0 J!
b0 K!
b0 L!
bx R!
bx S!
bx T!
b0 Y!
b0 Z!
b0 [!
1o!
0p!
b0 q!
b0 r!
b0 s!
bx t!
xu!
b0 }!
0~!
0!"
b0 ""
b0 #"
b111 $"
b0 %"
x&"
x'"
b1000 G!
b11 H!
b1000 O!
b101 P!
b1000 W!
b11 X!
b1110 ^!
b1101 _!
b0 `!
b1 a!
b10 b!
b11 c!
b100 d!
b101 e!
b1110 v!
b1101 w!
b0 x!
b1 y!
b10 z!
b11 {!
b100 |!
b10000 /
b0 0
b0 1
b0 2
b0 3
b0 6
b0 7
b10000 8
b10000 J
b0 K
b0 L
b0 M
b0 N
b0 ^
b0 _
b0 `
1'
0(
0)
1*
xA
x@
x?
x>
x=
x<
x;
x:
xB
xC
xD
0[
0Z
0Y
0X
0W
0V
0U
0T
0\
1]
0#!
0"!
0!!
0~
0}
0|
0{
0z
0$!
z%!
0/!
0.!
0-!
0,!
0+!
0*!
0)!
0(!
00!
01!
0:!
09!
08!
07!
06!
05!
04!
03!
02!
xC!
xB!
xA!
x@!
x?!
x>!
x=!
x<!
x;!
0D!
0M!
0N!
0U!
0V!
0\!
0]!
0y
0x
0w
0v
0u
0t
0s
0r
0q
0p
0o
1n
0m
0l
0k
0j
0i
0h
0g
0f
0e
0d
1c
0b
1a
0n!
0m!
0l!
0k!
0j!
0i!
0h!
0g!
0f!
0Q!
0I!
$end
#160000
0!
1"
0a
1b
b0 S!
b0 T!
b0 R!
1D
0C
0C!
0B!
0A!
0@!
0?!
0>!
0=!
0<!
0;!
0B
0A
0@
0?
0>
0=
0<
0;
0:
#320000
1!
0"
1a
0b
#480000
0!
1"
0a
1b
#640000
1!
0"
1a
0b
#800000
0!
1"
0a
1b
#960000
1!
0"
1a
0b
#1120000
0!
1"
0a
1b
#1280000
1!
0"
1a
0b
#1440000
0!
1"
0a
1b
#1600000
1!
0"
1a
0b
#1760000
0!
1"
0a
1b
#1920000
1!
0"
1a
0b
#2080000
0!
1"
0a
1b
#2240000
1!
0"
1a
0b
#2400000
0!
1"
0a
1b
#2560000
1!
0"
1a
0b
#2720000
0!
1"
0a
1b
#2880000
1!
0"
1a
0b
#3040000
0!
1"
0a
1b
#3200000
1!
0"
1a
0b
#3360000
0!
1"
0a
1b
#3520000
1!
0"
1a
0b
#3680000
0!
1"
0a
1b
#3840000
1!
0"
1a
0b
#4000000
0!
1"
0a
1b
#4160000
1!
0"
1a
0b
#4320000
0!
1"
0a
1b
#4480000
1!
0"
1a
0b
#4640000
0!
1"
0a
1b
#4800000
1!
0"
1a
0b
#4960000
0!
1"
0a
1b
#5000000
0#
0c
#5120000
1!
0"
1a
0b
#5280000
0!
1"
0a
1b
#5440000
1!
0"
1a
0b
#5600000
0!
1"
0a
1b
#5760000
1!
0"
1a
0b
#5920000
0!
1"
0a
1b
#6080000
1!
0"
1a
0b
#6240000
0!
1"
0a
1b
#6400000
1!
0"
1a
0b
#6560000
0!
1"
0a
1b
#6720000
1!
0"
1a
0b
#6880000
0!
1"
0a
1b
#7040000
1!
0"
1a
0b
#7200000
0!
1"
0a
1b
#7360000
1!
0"
1a
0b
#7520000
0!
1"
0a
1b
#7680000
1!
0"
1a
0b
#7840000
0!
1"
0a
1b
#8000000
1!
0"
1a
0b
#8160000
0!
1"
0a
1b
#8320000
1!
0"
1a
0b
#8480000
0!
1"
0a
1b
#8640000
1!
0"
1a
0b
#8800000
0!
1"
0a
1b
#8960000
1!
0"
1a
0b
#9120000
0!
1"
0a
1b
#9280000
1!
0"
1a
0b
#9440000
0!
1"
0a
1b
#9600000
1!
0"
1a
0b
#9760000
0!
1"
0a
1b
#9920000
1!
0"
1a
0b
#10080000
0!
1"
0a
1b
#10240000
1!
0"
1a
0b
#10400000
0!
1"
0a
1b
#10560000
1!
0"
1a
0b
#10720000
0!
1"
0a
1b
#10880000
1!
0"
1a
0b
#11040000
0!
1"
0a
1b
#11200000
1!
0"
1a
0b
#11360000
0!
1"
0a
1b
#11520000
1!
0"
1a
0b
#11680000
0!
1"
0a
1b
#11840000
1!
0"
1a
0b
#12000000
0!
1"
0a
1b
#12160000
1!
0"
1a
0b
#12320000
0!
1"
0a
1b
#12480000
1!
0"
1a
0b
#12640000
0!
1"
0a
1b
#12800000
1!
0"
1a
0b
#12960000
0!
1"
0a
1b
#13120000
1!
0"
1a
0b
#13280000
0!
1"
0a
1b
#13440000
1!
0"
1a
0b
#13600000
0!
1"
0a
1b
#13760000
1!
0"
1a
0b
#13920000
0!
1"
0a
1b
#14080000
1!
0"
1a
0b
#14240000
0!
1"
0a
1b
#14400000
1!
0"
1a
0b
#14560000
0!
1"
0a
1b
#14720000
1!
0"
1a
0b
#14880000
0!
1"
0a
1b
#15040000
1!
0"
1a
0b
#15200000
0!
1"
0a
1b
#15360000
1!
0"
1a
0b
#15520000
0!
1"
0a
1b
#15680000
1!
0"
1a
0b
#15840000
0!
1"
0a
1b
#16000000
1!
0"
1a
0b
#16160000
0!
1"
0a
1b
#16320000
1!
0"
1a
0b
#16480000
0!
1"
0a
1b
#16640000
1!
0"
1a
0b
#16800000
0!
1"
0a
1b
#16960000
1!
0"
1a
0b
#17120000
0!
1"
0a
1b
#17280000
1!
0"
1a
0b
#17440000
0!
1"
0a
1b
#17600000
1!
0"
1a
0b
#17760000
0!
1"
0a
1b
#17920000
1!
0"
1a
0b
#18080000
0!
1"
0a
1b
#18240000
1!
0"
1a
0b
#18400000
0!
1"
0a
1b
#18560000
1!
0"
1a
0b
#18720000
0!
1"
0a
1b
#18880000
1!
0"
1a
0b
#19040000
0!
1"
0a
1b
#19200000
1!
0"
1a
0b
#19360000
0!
1"
0a
1b
#19520000
1!
0"
1a
0b
#19680000
0!
1"
0a
1b
#19840000
1!
0"
1a
0b
#20000000
0!
1"
0a
1b
#20160000
1!
0"
1a
0b
#20320000
0!
1"
0a
1b
#20480000
1!
0"
1a
0b
#20640000
0!
1"
0a
1b
#20800000
1!
0"
1a
0b
#20960000
0!
1"
0a
1b
#21120000
1!
0"
1a
0b
#21280000
0!
1"
0a
1b
#21440000
1!
0"
1a
0b
#21600000
0!
1"
0a
1b
#21760000
1!
0"
1a
0b
#21920000
0!
1"
0a
1b
#22080000
1!
0"
1a
0b
#22240000
0!
1"
0a
1b
#22400000
1!
0"
1a
0b
#22560000
0!
1"
0a
1b
#22720000
1!
0"
1a
0b
#22880000
0!
1"
0a
1b
#23040000
1!
0"
1a
0b
#23200000
0!
1"
0a
1b
#23360000
1!
0"
1a
0b
#23520000
0!
1"
0a
1b
#23680000
1!
0"
1a
0b
#23840000
0!
1"
0a
1b
#24000000
1!
0"
1a
0b
#24160000
0!
1"
0a
1b
#24320000
1!
0"
1a
0b
#24480000
0!
1"
0a
1b
#24640000
1!
0"
1a
0b
#24800000
0!
1"
0a
1b
#24960000
1!
0"
1a
0b
#25120000
0!
1"
0a
1b
#25280000
1!
0"
1a
0b
#25440000
0!
1"
0a
1b
#25600000
1!
0"
1a
0b
#25760000
0!
1"
0a
1b
#25920000
1!
0"
1a
0b
#26080000
0!
1"
0a
1b
#26240000
1!
0"
1a
0b
#26400000
0!
1"
0a
1b
#26560000
1!
0"
1a
0b
#26720000
0!
1"
0a
1b
#26880000
1!
0"
1a
0b
#27040000
0!
1"
0a
1b
#27200000
1!
0"
1a
0b
#27360000
0!
1"
0a
1b
#27520000
1!
0"
1a
0b
#27680000
0!
1"
0a
1b
#27840000
1!
0"
1a
0b
#28000000
0!
1"
0a
1b
#28160000
1!
0"
1a
0b
#28320000
0!
1"
0a
1b
#28480000
1!
0"
1a
0b
#28640000
0!
1"
0a
1b
#28800000
1!
0"
1a
0b
#28960000
0!
1"
0a
1b
#29120000
1!
0"
1a
0b
#29280000
0!
1"
0a
1b
#29440000
1!
0"
1a
0b
#29600000
0!
1"
0a
1b
#29760000
1!
0"
1a
0b
#29920000
0!
1"
0a
1b
#30080000
1!
0"
1a
0b
#30240000
0!
1"
0a
1b
#30400000
1!
0"
1a
0b
#30560000
0!
1"
0a
1b
#30720000
1!
0"
1a
0b
#30880000
0!
1"
0a
1b
#31040000
1!
0"
1a
0b
#31200000
0!
1"
0a
1b
#31360000
1!
0"
1a
0b
#31520000
0!
1"
0a
1b
#31680000
1!
0"
1a
0b
#31840000
0!
1"
0a
1b
#32000000
1!
0"
1a
0b
#32160000
0!
1"
0a
1b
#32320000
1!
0"
1a
0b
#32480000
0!
1"
0a
1b
#32640000
1!
0"
1a
0b
#32800000
0!
1"
0a
1b
#32960000
1!
0"
1a
0b
#33120000
0!
1"
0a
1b
#33280000
1!
0"
1a
0b
#33440000
0!
1"
0a
1b
#33600000
1!
0"
1a
0b
#33760000
0!
1"
0a
1b
#33920000
1!
0"
1a
0b
#34080000
0!
1"
0a
1b
#34240000
1!
0"
1a
0b
#34400000
0!
1"
0a
1b
#34560000
1!
0"
1a
0b
#34720000
0!
1"
0a
1b
#34880000
1!
0"
1a
0b
#35040000
0!
1"
0a
1b
#35200000
1!
0"
1a
0b
#35360000
0!
1"
0a
1b
#35520000
1!
0"
1a
0b
#35680000
0!
1"
0a
1b
#35840000
1!
0"
1a
0b
#36000000
0!
1"
0a
1b
#36160000
1!
0"
1a
0b
#36320000
0!
1"
0a
1b
#36480000
1!
0"
1a
0b
#36640000
0!
1"
0a
1b
#36800000
1!
0"
1a
0b
b1001000 $
1&
1j
1g
1e
1I!
1M!
#36960000
0!
1"
0a
1b
#37120000
1!
0"
1a
0b
0&
b1 0
0e
0I!
0M!
b1 K!
0*
#37280000
0!
1"
0a
1b
#37440000
1!
0"
1a
0b
1&!
1E!
1f!
#37600000
0!
1"
0a
1b
#37760000
1!
0"
1a
0b
0&!
b0 t!
0u!
b1 q!
0f!
0o!
0'
#37920000
0!
1"
0a
1b
#38080000
1!
0"
1a
0b
b1 r!
#38240000
0!
1"
0a
1b
#38400000
1!
0"
1a
0b
b10 r!
#38560000
0!
1"
0a
1b
#38720000
1!
0"
1a
0b
b11 r!
#38880000
0!
1"
0a
1b
#39040000
1!
0"
1a
0b
b100 r!
#39200000
0!
1"
0a
1b
#39360000
1!
0"
1a
0b
b101 r!
#39520000
0!
1"
0a
1b
#39680000
1!
0"
1a
0b
b110 r!
#39840000
0!
1"
0a
1b
#40000000
1!
0"
1a
0b
b111 r!
#40160000
0!
1"
0a
1b
#40320000
1!
0"
1a
0b
b1000 r!
#40480000
0!
1"
0a
1b
#40640000
1!
0"
1a
0b
b1001 r!
#40800000
0!
1"
0a
1b
#40960000
1!
0"
1a
0b
b1010 r!
#41120000
0!
1"
0a
1b
#41280000
1!
0"
1a
0b
b1011 r!
#41440000
0!
1"
0a
1b
#41600000
1!
0"
1a
0b
b1100 r!
#41760000
0!
1"
0a
1b
#41920000
1!
0"
1a
0b
b1101 r!
#42080000
0!
1"
0a
1b
#42240000
1!
0"
1a
0b
b0 r!
b10 q!
b111 s!
#42400000
0!
1"
0a
1b
#42560000
1!
0"
1a
0b
b1 r!
#42720000
0!
1"
0a
1b
#42880000
1!
0"
1a
0b
b10 r!
#43040000
0!
1"
0a
1b
#43200000
1!
0"
1a
0b
b11 r!
#43360000
0!
1"
0a
1b
#43520000
1!
0"
1a
0b
b100 r!
#43680000
0!
1"
0a
1b
#43840000
1!
0"
1a
0b
b101 r!
#44000000
0!
1"
0a
1b
#44160000
1!
0"
1a
0b
b110 r!
#44320000
0!
1"
0a
1b
#44480000
1!
0"
1a
0b
b111 r!
#44640000
0!
1"
0a
1b
#44800000
1!
0"
1a
0b
b1000 r!
#44960000
0!
1"
0a
1b
#45120000
1!
0"
1a
0b
b1001 r!
#45280000
0!
1"
0a
1b
#45440000
1!
0"
1a
0b
b1010 r!
#45600000
0!
1"
0a
1b
#45760000
1!
0"
1a
0b
b1011 r!
#45920000
0!
1"
0a
1b
#46080000
1!
0"
1a
0b
b1100 r!
#46240000
0!
1"
0a
1b
#46400000
1!
0"
1a
0b
b1101 r!
#46560000
0!
1"
0a
1b
#46720000
1!
0"
1a
0b
b0 r!
b110 s!
#46880000
0!
1"
0a
1b
#47040000
1!
0"
1a
0b
b1 r!
#47200000
0!
1"
0a
1b
#47360000
1!
0"
1a
0b
b10 r!
#47520000
0!
1"
0a
1b
#47680000
1!
0"
1a
0b
b11 r!
#47840000
0!
1"
0a
1b
#48000000
1!
0"
1a
0b
b100 r!
#48160000
0!
1"
0a
1b
#48320000
1!
0"
1a
0b
b101 r!
#48480000
0!
1"
0a
1b
#48640000
1!
0"
1a
0b
b110 r!
#48800000
0!
1"
0a
1b
#48960000
1!
0"
1a
0b
b111 r!
#49120000
0!
1"
0a
1b
#49280000
1!
0"
1a
0b
b1000 r!
#49440000
0!
1"
0a
1b
#49600000
1!
0"
1a
0b
b1001 r!
#49760000
0!
1"
0a
1b
#49920000
1!
0"
1a
0b
b1010 r!
#50080000
0!
1"
0a
1b
#50240000
1!
0"
1a
0b
b1011 r!
#50400000
0!
1"
0a
1b
#50560000
1!
0"
1a
0b
b1100 r!
#50720000
0!
1"
0a
1b
#50880000
1!
0"
1a
0b
b1101 r!
#51040000
0!
1"
0a
1b
#51200000
1!
0"
1a
0b
b0 r!
b101 s!
#51360000
0!
1"
0a
1b
#51520000
1!
0"
1a
0b
b1 r!
#51680000
0!
1"
0a
1b
#51840000
1!
0"
1a
0b
b10 r!
#52000000
0!
1"
0a
1b
#52160000
1!
0"
1a
0b
b11 r!
#52320000
0!
1"
0a
1b
#52480000
1!
0"
1a
0b
b100 r!
#52640000
0!
1"
0a
1b
#52800000
1!
0"
1a
0b
b101 r!
#52960000
0!
1"
0a
1b
#53120000
1!
0"
1a
0b
b110 r!
#53280000
0!
1"
0a
1b
#53440000
1!
0"
1a
0b
b111 r!
#53600000
0!
1"
0a
1b
#53760000
1!
0"
1a
0b
b1000 r!
#53920000
0!
1"
0a
1b
#54080000
1!
0"
1a
0b
b1001 r!
#54240000
0!
1"
0a
1b
#54400000
1!
0"
1a
0b
b1010 r!
#54560000
0!
1"
0a
1b
#54720000
1!
0"
1a
0b
b1011 r!
#54880000
0!
1"
0a
1b
#55040000
1!
0"
1a
0b
b1100 r!
#55200000
0!
1"
0a
1b
#55360000
1!
0"
1a
0b
b1101 r!
#55520000
0!
1"
0a
1b
#55680000
1!
0"
1a
0b
b0 r!
b100 s!
#55840000
0!
1"
0a
1b
#56000000
1!
0"
1a
0b
b1 r!
#56160000
0!
1"
0a
1b
#56320000
1!
0"
1a
0b
b10 r!
#56480000
0!
1"
0a
1b
#56640000
1!
0"
1a
0b
b11 r!
#56800000
0!
1"
0a
1b
#56960000
1!
0"
1a
0b
b100 r!
#57120000
0!
1"
0a
1b
#57280000
1!
0"
1a
0b
b101 r!
#57440000
0!
1"
0a
1b
#57600000
1!
0"
1a
0b
b110 r!
#57760000
0!
1"
0a
1b
#57920000
1!
0"
1a
0b
b111 r!
#58080000
0!
1"
0a
1b
#58240000
1!
0"
1a
0b
b1000 r!
#58400000
0!
1"
0a
1b
#58560000
1!
0"
1a
0b
b1001 r!
#58720000
0!
1"
0a
1b
#58880000
1!
0"
1a
0b
b1010 r!
#59040000
0!
1"
0a
1b
#59200000
1!
0"
1a
0b
b1011 r!
#59360000
0!
1"
0a
1b
#59520000
1!
0"
1a
0b
b1100 r!
#59680000
0!
1"
0a
1b
#59840000
1!
0"
1a
0b
b1101 r!
#60000000
0!
1"
0a
1b
#60160000
1!
0"
1a
0b
b0 r!
b11 s!
#60320000
0!
1"
0a
1b
#60480000
1!
0"
1a
0b
b1 r!
#60640000
0!
1"
0a
1b
#60800000
1!
0"
1a
0b
b10 r!
#60960000
0!
1"
0a
1b
#61120000
1!
0"
1a
0b
b11 r!
#61280000
0!
1"
0a
1b
#61440000
1!
0"
1a
0b
b100 r!
#61600000
0!
1"
0a
1b
#61760000
1!
0"
1a
0b
b101 r!
#61920000
0!
1"
0a
1b
#62080000
1!
0"
1a
0b
b110 r!
#62240000
0!
1"
0a
1b
#62400000
1!
0"
1a
0b
b111 r!
#62560000
0!
1"
0a
1b
#62720000
1!
0"
1a
0b
b1000 r!
#62880000
0!
1"
0a
1b
#63040000
1!
0"
1a
0b
b1001 r!
#63200000
0!
1"
0a
1b
#63360000
1!
0"
1a
0b
b1010 r!
#63520000
0!
1"
0a
1b
#63680000
1!
0"
1a
0b
b1011 r!
#63840000
0!
1"
0a
1b
#64000000
1!
0"
1a
0b
b1100 r!
#64160000
0!
1"
0a
1b
#64320000
1!
0"
1a
0b
b1101 r!
#64480000
0!
1"
0a
1b
#64640000
1!
0"
1a
0b
b0 r!
b10 s!
#64800000
0!
1"
0a
1b
#64960000
1!
0"
1a
0b
b1 r!
#65120000
0!
1"
0a
1b
#65280000
1!
0"
1a
0b
b10 r!
#65440000
0!
1"
0a
1b
#65600000
1!
0"
1a
0b
b11 r!
#65760000
0!
1"
0a
1b
#65920000
1!
0"
1a
0b
b100 r!
#66080000
0!
1"
0a
1b
#66240000
1!
0"
1a
0b
b101 r!
#66400000
0!
1"
0a
1b
#66560000
1!
0"
1a
0b
b110 r!
#66720000
0!
1"
0a
1b
#66880000
1!
0"
1a
0b
b111 r!
#67040000
0!
1"
0a
1b
#67200000
1!
0"
1a
0b
b1000 r!
#67360000
0!
1"
0a
1b
#67520000
1!
0"
1a
0b
b1001 r!
#67680000
0!
1"
0a
1b
#67840000
1!
0"
1a
0b
b1010 r!
#68000000
0!
1"
0a
1b
#68160000
1!
0"
1a
0b
b1011 r!
#68320000
0!
1"
0a
1b
#68480000
1!
0"
1a
0b
b1100 r!
#68640000
0!
1"
0a
1b
#68800000
1!
0"
1a
0b
14
b1001000 -
0.
b10010010000 ,
0+
b1101 r!
#68960000
0!
1"
0a
1b
#69120000
1!
0"
1a
0b
b1100101 $
1&
b1 7
1m
1k
0j
1h
1e
1I!
1M!
b0 r!
b1 s!
#69280000
0!
1"
0a
1b
#69440000
1!
0"
1a
0b
b10 7
0&
b10 0
0e
0I!
0M!
b10 K!
b1 r!
#69600000
0!
1"
0a
1b
#69760000
1!
0"
1a
0b
b11 7
b10 r!
#69920000
0!
1"
0a
1b
#70080000
1!
0"
1a
0b
b100 7
b11 r!
#70240000
0!
1"
0a
1b
#70400000
1!
0"
1a
0b
b101 7
b100 r!
#70560000
0!
1"
0a
1b
#70720000
1!
0"
1a
0b
b110 7
b101 r!
#70880000
0!
1"
0a
1b
#71040000
1!
0"
1a
0b
b111 7
b110 r!
#71200000
0!
1"
0a
1b
#71360000
1!
0"
1a
0b
b1000 7
b111 r!
#71520000
0!
1"
0a
1b
#71680000
1!
0"
1a
0b
b1001 7
b1000 r!
#71840000
0!
1"
0a
1b
#72000000
1!
0"
1a
0b
b1010 7
b1001 r!
#72160000
0!
1"
0a
1b
#72320000
1!
0"
1a
0b
b1011 7
b1010 r!
#72480000
0!
1"
0a
1b
#72640000
1!
0"
1a
0b
b1100 7
b1011 r!
#72800000
0!
1"
0a
1b
#72960000
1!
0"
1a
0b
b1101 7
b1100 r!
#73120000
0!
1"
0a
1b
