AES/UART_buffer/simulation/modelsim/tb_uart_buffer.vcd
$date
	Mon Sep  8 01:43:46 2025
$end
$version
	ModelSim Version 2020.1
$end
$timescale
	1ps
$end

$scope module tb $end
$var reg 1 ! clk_3125_tx $end
$var reg 1 " clk_3125_rx $end
$var reg 1 # reset $end
$var reg 8 $ data_tx [7:0] $end
$var reg 1 % parity_type $end
$var reg 1 & tx_start $end
$var wire 1 ' tx_line $end
$var wire 1 ( tx_done $end
$var wire 1 ) tx_fifo_full $end
$var wire 1 * tx_fifo_empty $end
$var reg 1 + tx_exp $end
$var reg 11 , tx_data_packet [10:0] $end
$var reg 8 - tx_msg [7:0] $end
$var reg 1 . tx_parity_bit $end
$var integer 32 / tx_data_count $end
$var integer 32 0 tx_send_index $end
$var integer 32 1 tx_bit_index $end
$var integer 32 2 tx_clk_counter $end
$var integer 32 3 tx_bit_errors $end
$var integer 32 4 bit_pos $end
$var integer 32 5 clk_cnt $end
$var reg 1 6 tx_generating_expected $end
$var reg 1 7 tx_done_flag $end
$var reg 1 8 tx_start_detected $end
$var reg 1 9 tx_transmission_active $end
$var reg 1 : rx $end
$var wire 1 ; rx_data_out [7] $end
$var wire 1 < rx_data_out [6] $end
$var wire 1 = rx_data_out [5] $end
$var wire 1 > rx_data_out [4] $end
$var wire 1 ? rx_data_out [3] $end
$var wire 1 @ rx_data_out [2] $end
$var wire 1 A rx_data_out [1] $end
$var wire 1 B rx_data_out [0] $end
$var wire 1 C rx_parity_out $end
$var wire 1 D rx_fifo_full $end
$var wire 1 E rx_fifo_empty $end
$var reg 1 F rx_read_en $end
$var reg 1 G rx_exp $end
$var reg 11 H rx_data_packet [10:0] $end
$var reg 8 I rx_msg [7:0] $end
$var reg 1 J rx_parity_bit $end
$var integer 32 K rx_data_count $end
$var integer 32 L rx_send_index $end
$var integer 32 M rx_bit_index $end
$var integer 32 N rx_clk_counter $end
$var integer 32 O rx_bit_errors $end
$var reg 1 P rx_generating_expected $end
$var reg 1 Q rx_done_flag $end
$var reg 1 R test_fifo_wr_en $end
$var reg 1 S test_fifo_rd_en $end
$var reg 8 T test_fifo_din [7:0] $end
$var wire 1 U test_fifo_dout [7] $end
$var wire 1 V test_fifo_dout [6] $end
$var wire 1 W test_fifo_dout [5] $end
$var wire 1 X test_fifo_dout [4] $end
$var wire 1 Y test_fifo_dout [3] $end
$var wire 1 Z test_fifo_dout [2] $end
$var wire 1 [ test_fifo_dout [1] $end
$var wire 1 \ test_fifo_dout [0] $end
$var wire 1 ] test_fifo_full $end
$var wire 1 ^ test_fifo_empty $end
$var integer 32 _ test_fifo_count $end
$var integer 32 ` test_fifo_errors $end
$var integer 32 a test_fifo_index $end

$scope module uut $end
$var wire 1 b clk_3125_tx $end
$var wire 1 c clk_3125_rx $end
$var wire 1 d reset $end
$var wire 1 e parity_type $end
$var wire 1 f tx_start $end
$var wire 1 g data [7] $end
$var wire 1 h data [6] $end
$var wire 1 i data [5] $end
$var wire 1 j data [4] $end
$var wire 1 k data [3] $end
$var wire 1 l data [2] $end
$var wire 1 m data [1] $end
$var wire 1 n data [0] $end
$var wire 1 ' tx_line $end
$var wire 1 ( tx_done $end
$var wire 1 ) tx_fifo_full $end
$var wire 1 * tx_fifo_empty $end
$var wire 1 o rx $end
$var wire 1 ; rx_data_out [7] $end
$var wire 1 < rx_data_out [6] $end
$var wire 1 = rx_data_out [5] $end
$var wire 1 > rx_data_out [4] $end
$var wire 1 ? rx_data_out [3] $end
$var wire 1 @ rx_data_out [2] $end
$var wire 1 A rx_data_out [1] $end
$var wire 1 B rx_data_out [0] $end
$var wire 1 C rx_parity_out $end
$var wire 1 D rx_fifo_full $end
$var wire 1 E rx_fifo_empty $end
$var wire 1 p rx_read_en $end
$var wire 1 q test_fifo_wr_en $end
$var wire 1 r test_fifo_rd_en $end
$var wire 1 s test_fifo_din [7] $end
$var wire 1 t test_fifo_din [6] $end
$var wire 1 u test_fifo_din [5] $end
$var wire 1 v test_fifo_din [4] $end
$var wire 1 w test_fifo_din [3] $end
$var wire 1 x test_fifo_din [2] $end
$var wire 1 y test_fifo_din [1] $end
$var wire 1 z test_fifo_din [0] $end
$var wire 1 U test_fifo_dout [7] $end
$var wire 1 V test_fifo_dout [6] $end
$var wire 1 W test_fifo_dout [5] $end
$var wire 1 X test_fifo_dout [4] $end
$var wire 1 Y test_fifo_dout [3] $end
$var wire 1 Z test_fifo_dout [2] $end
$var wire 1 [ test_fifo_dout [1] $end
$var wire 1 \ test_fifo_dout [0] $end
$var wire 1 ] test_fifo_full $end
$var wire 1 ^ test_fifo_empty $end
$var wire 1 { tx_fifo_data_out [7] $end
$var wire 1 | tx_fifo_data_out [6] $end
$var wire 1 } tx_fifo_data_out [5] $end
$var wire 1 ~ tx_fifo_data_out [4] $end
$var wire 1 !! tx_fifo_data_out [3] $end
$var wire 1 "! tx_fifo_data_out [2] $end
$var wire 1 #! tx_fifo_data_out [1] $end
$var wire 1 $! tx_fifo_data_out [0] $end
$var wire 1 %! tx_fifo_rd_en $end
$var wire 1 &! tx_fifo_wr_en $end
$var reg 1 '! tx_auto_send $end
$var reg 8 (! tx_current_data [7:0] $end
$var wire 1 )! rx_msg [7] $end
$var wire 1 *! rx_msg [6] $end
$var wire 1 +! rx_msg [5] $end
$var wire 1 ,! rx_msg [4] $end
$var wire 1 -! rx_msg [3] $end
$var wire 1 .! rx_msg [2] $end
$var wire 1 /! rx_msg [1] $end
$var wire 1 0! rx_msg [0] $end
$var wire 1 1! rx_parity $end
$var wire 1 2! rx_complete $end
$var wire 1 3! rx_fifo_data_in [8] $end
$var wire 1 4! rx_fifo_data_in [7] $end
$var wire 1 5! rx_fifo_data_in [6] $end
$var wire 1 6! rx_fifo_data_in [5] $end
$var wire 1 7! rx_fifo_data_in [4] $end
$var wire 1 8! rx_fifo_data_in [3] $end
$var wire 1 9! rx_fifo_data_in [2] $end
$var wire 1 :! rx_fifo_data_in [1] $end
$var wire 1 ;! rx_fifo_data_in [0] $end
$var wire 1 <! rx_fifo_data_out [8] $end
$var wire 1 =! rx_fifo_data_out [7] $end
$var wire 1 >! rx_fifo_data_out [6] $end
$var wire 1 ?! rx_fifo_data_out [5] $end
$var wire 1 @! rx_fifo_data_out [4] $end
$var wire 1 A! rx_fifo_data_out [3] $end
$var wire 1 B! rx_fifo_data_out [2] $end
$var wire 1 C! rx_fifo_data_out [1] $end
$var wire 1 D! rx_fifo_data_out [0] $end
$var wire 1 E! rx_fifo_wr_en $end
$var reg 1 F! tx_busy $end
$var reg 1 G! tx_done_prev $end

$scope module tx_fifo $end
$var parameter 32 H! DEPTH $end
$var parameter 32 I! ADDR_WIDTH $end
$var wire 1 b clk $end
$var wire 1 d reset $end
$var wire 1 J! wr_en $end
$var wire 1 %! rd_en $end
$var wire 1 g din [7] $end
$var wire 1 h din [6] $end
$var wire 1 i din [5] $end
$var wire 1 j din [4] $end
$var wire 1 k din [3] $end
$var wire 1 l din [2] $end
$var wire 1 m din [1] $end
$var wire 1 n din [0] $end
$var reg 8 K! dout [7:0] $end
$var wire 1 ) full $end
$var wire 1 * empty $end
$var reg 4 L! wr_ptr [3:0] $end
$var reg 4 M! rd_ptr [3:0] $end
$var wire 1 N! wr_valid $end
$var wire 1 O! rd_valid $end
$upscope $end

$scope module rx_fifo $end
$var parameter 32 P! DEPTH $end
$var parameter 32 Q! ADDR_WIDTH $end
$var wire 1 c clk $end
$var wire 1 d reset $end
$var wire 1 E! wr_en $end
$var wire 1 R! rd_en $end
$var wire 1 3! din [8] $end
$var wire 1 4! din [7] $end
$var wire 1 5! din [6] $end
$var wire 1 6! din [5] $end
$var wire 1 7! din [4] $end
$var wire 1 8! din [3] $end
$var wire 1 9! din [2] $end
$var wire 1 :! din [1] $end
$var wire 1 ;! din [0] $end
$var reg 9 S! dout [8:0] $end
$var wire 1 D full $end
$var wire 1 E empty $end
$var reg 6 T! wr_ptr [5:0] $end
$var reg 6 U! rd_ptr [5:0] $end
$var wire 1 V! wr_valid $end
$var wire 1 W! rd_valid $end
$upscope $end

$scope module test_fifo $end
$var parameter 32 X! DEPTH $end
$var parameter 32 Y! ADDR_WIDTH $end
$var wire 1 b clk $end
$var wire 1 d reset $end
$var wire 1 q wr_en $end
$var wire 1 r rd_en $end
$var wire 1 s din [7] $end
$var wire 1 t din [6] $end
$var wire 1 u din [5] $end
$var wire 1 v din [4] $end
$var wire 1 w din [3] $end
$var wire 1 x din [2] $end
$var wire 1 y din [1] $end
$var wire 1 z din [0] $end
$var reg 8 Z! dout [7:0] $end
$var wire 1 ] full $end
$var wire 1 ^ empty $end
$var reg 4 [! wr_ptr [3:0] $end
$var reg 4 \! rd_ptr [3:0] $end
$var wire 1 ]! wr_valid $end
$var wire 1 ^! rd_valid $end
$upscope $end

$scope module tx_inst $end
$var parameter 32 _! CLOCKS_PER_BIT $end
$var parameter 32 `! FINAL_CYCLE $end
$var parameter 4 a! S_IDLE $end
$var parameter 4 b! S_START $end
$var parameter 4 c! S_DATA $end
$var parameter 4 d! S_PARITY $end
$var parameter 4 e! S_STOP $end
$var parameter 4 f! S_DONE $end
$var wire 1 b clk_3125_tx $end
$var wire 1 e parity_type $end
$var wire 1 g! tx_start $end
$var wire 1 h! data [7] $end
$var wire 1 i! data [6] $end
$var wire 1 j! data [5] $end
$var wire 1 k! data [4] $end
$var wire 1 l! data [3] $end
$var wire 1 m! data [2] $end
$var wire 1 n! data [1] $end
$var wire 1 o! data [0] $end
$var reg 1 p! tx $end
$var reg 1 q! tx_done $end
$var reg 4 r! state [3:0] $end
$var reg 4 s! clk_counter [3:0] $end
$var reg 3 t! bit_counter [2:0] $end
$var reg 8 u! data_reg [7:0] $end
$var reg 1 v! parity_bit_reg $end
$upscope $end

$scope module rx_inst $end
$var parameter 32 w! CLOCKS_PER_BIT $end
$var parameter 32 x! FINAL_CYCLE $end
$var parameter 3 y! S_IDLE $end
$var parameter 3 z! S_START $end
$var parameter 3 {! S_DATA $end
$var parameter 3 |! S_PARITY $end
$var parameter 3 }! S_STOP $end
$var wire 1 c clk_3125_rx $end
$var wire 1 o rx $end
$var reg 8 ~! rx_msg [7:0] $end
$var reg 1 !" rx_parity $end
$var reg 1 "" rx_complete $end
$var reg 3 #" state [2:0] $end
$var reg 5 $" clk_counter [4:0] $end
$var reg 3 %" bit_counter [2:0] $end
$var reg 8 &" data_shift_reg [7:0] $end
$var reg 1 '" rx_start $end
$var reg 1 (" sampled_parity $end
$upscope $end
$upscope $end
$upscope $end
$enddefinitions $end
#0
$dumpvars
1!
0"
1#
bx $
0%
0&
1+
bx ,
bx -
x.
06
07
08
09
1:
0F
xG
bx H
bx I
xJ
0P
0Q
0R
0S
bx T
0'!
b0 (!
0F!
0G!
b0 K!
b0 L!
b0 M!
bx S!
bx T!
bx U!
b0 Z!
b0 [!
b0 \!
1p!
0q!
b0 r!
b0 s!
b0 t!
bx u!
xv!
b0 ~!
0!"
0""
b0 #"
b0 $"
b111 %"
b0 &"
x'"
x("
b1000 H!
b11 I!
b1000 P!
b101 Q!
b1000 X!
b11 Y!
b1110 _!
b1101 `!
b0 a!
b1 b!
b10 c!
b11 d!
b100 e!
b101 f!
b1110 w!
b1101 x!
b0 y!
b1 z!
b10 {!
b11 |!
b100 }!
b1000 /
b0 0
b0 1
bx 2
b0 3
bx 4
bx 5
b1000 K
b0 L
b0 M
bx N
b0 O
b1000 _
b0 `
b1000 a
1'
0(
0)
1*
xB
xA
x@
x?
x>
x=
x<
x;
xC
xD
xE
0\
0[
0Z
0Y
0X
0W
0V
0U
0]
1^
0$!
0#!
0"!
0!!
0~
0}
0|
0{
0%!
z&!
00!
0/!
0.!
0-!
0,!
0+!
0*!
0)!
01!
02!
0;!
0:!
09!
08!
07!
06!
05!
04!
03!
xD!
xC!
xB!
xA!
x@!
x?!
x>!
x=!
x<!
0E!
0N!
0O!
0V!
0W!
0]!
0^!
xz
xy
xx
xw
xv
xu
xt
xs
0r
0q
0p
1o
xn
xm
xl
xk
xj
xi
xh
xg
0f
0e
1d
0c
1b
0o!
0n!
0m!
0l!
0k!
0j!
0i!
0h!
0g!
0R!
0J!
$end
#160000
0!
1"
0b
1c
b0 T!
b0 U!
b0 S!
1E
0D
0D!
0C!
0B!
0A!
0@!
0?!
0>!
0=!
0<!
0C
0B
0A
0@
0?
0>
0=
0<
0;
#320000
1!
0"
1b
0c
#480000
0!
1"
0b
1c
#640000
1!
0"
1b
0c
#800000
0!
1"
0b
1c
#960000
1!
0"
1b
0c
#1120000
0!
1"
0b
1c
#1280000
1!
0"
1b
0c
#1440000
0!
1"
0b
1c
#1600000
1!
0"
1b
0c
#1760000
0!
1"
0b
1c
#1920000
1!
0"
1b
0c
#2080000
0!
1"
0b
1c
#2240000
1!
0"
1b
0c
#2400000
0!
1"
0b
1c
#2560000
1!
0"
1b
0c
#2720000
0!
1"
0b
1c
#2880000
1!
0"
1b
0c
#3040000
0!
1"
0b
1c
#3200000
1!
0"
1b
0c
#3360000
0!
1"
0b
1c
#3520000
1!
0"
1b
0c
#3680000
0!
1"
0b
1c
#3840000
1!
0"
1b
0c
#4000000
0!
1"
0b
1c
#4160000
1!
0"
1b
0c
#4320000
0!
1"
0b
1c
#4480000
1!
0"
1b
0c
#4640000
0!
1"
0b
1c
#4800000
1!
0"
1b
0c
#4960000
0!
1"
0b
1c
#5000000
0#
0d
#5120000
1!
0"
1b
0c
#5280000
0!
1"
0b
1c
#5440000
1!
0"
1b
0c
#5600000
0!
1"
0b
1c
#5760000
1!
0"
1b
0c
#5920000
0!
1"
0b
1c
#6080000
1!
0"
1b
0c
#6240000
0!
1"
0b
1c
#6400000
1!
0"
1b
0c
#6560000
0!
1"
0b
1c
#6720000
1!
0"
1b
0c
#6880000
0!
1"
0b
1c
#7040000
1!
0"
1b
0c
#7200000
0!
1"
0b
1c
#7360000
1!
0"
1b
0c
#7520000
0!
1"
0b
1c
#7680000
1!
0"
1b
0c
#7840000
0!
1"
0b
1c
#8000000
1!
0"
1b
0c
#8160000
0!
1"
0b
1c
#8320000
1!
0"
1b
0c
#8480000
0!
1"
0b
1c
#8640000
1!
0"
1b
0c
#8800000
0!
1"
0b
1c
#8960000
1!
0"
1b
0c
#9120000
0!
1"
0b
1c
#9280000
1!
0"
1b
0c
#9440000
0!
1"
0b
1c
#9600000
1!
0"
1b
0c
#9760000
0!
1"
0b
1c
#9920000
1!
0"
1b
0c
#10080000
0!
1"
0b
1c
#10240000
1!
0"
1b
0c
#10400000
0!
1"
0b
1c
#10560000
1!
0"
1b
0c
#10720000
0!
1"
0b
1c
#10880000
1!
0"
1b
0c
#11040000
0!
1"
0b
1c
#11200000
1!
0"
1b
0c
#11360000
0!
1"
0b
1c
#11520000
1!
0"
1b
0c
#11680000
0!
1"
0b
1c
#11840000
1!
0"
1b
0c
#12000000
0!
1"
0b
1c
#12160000
1!
0"
1b
0c
#12320000
0!
1"
0b
1c
#12480000
1!
0"
1b
0c
#12640000
0!
1"
0b
1c
#12800000
1!
0"
1b
0c
#12960000
0!
1"
0b
1c
#13120000
1!
0"
1b
0c
#13280000
0!
1"
0b
1c
#13440000
1!
0"
1b
0c
#13600000
0!
1"
0b
1c
#13760000
1!
0"
1b
0c
#13920000
0!
1"
0b
1c
#14080000
1!
0"
1b
0c
#14240000
0!
1"
0b
1c
#14400000
1!
0"
1b
0c
#14560000
0!
1"
0b
1c
#14720000
1!
0"
1b
0c
#14880000
0!
1"
0b
1c
#15040000
1!
0"
1b
0c
#15200000
0!
1"
0b
1c
#15360000
1!
0"
1b
0c
#15520000
0!
1"
0b
1c
#15680000
1!
0"
1b
0c
#15840000
0!
1"
0b
1c
#16000000
1!
0"
1b
0c
#16160000
0!
1"
0b
1c
#16320000
1!
0"
1b
0c
#16480000
0!
1"
0b
1c
#16640000
1!
0"
1b
0c
#16800000
0!
1"
0b
1c
#16960000
1!
0"
1b
0c
#17120000
0!
1"
0b
1c
#17280000
1!
0"
1b
0c
#17440000
0!
1"
0b
1c
#17600000
1!
0"
1b
0c
#17760000
0!
1"
0b
1c
#17920000
1!
0"
1b
0c
#18080000
0!
1"
0b
1c
#18240000
1!
0"
1b
0c
#18400000
0!
1"
0b
1c
#18560000
1!
0"
1b
0c
#18720000
0!
1"
0b
1c
#18880000
1!
0"
1b
0c
#19040000
0!
1"
0b
1c
#19200000
1!
0"
1b
0c
#19360000
0!
1"
0b
1c
#19520000
1!
0"
1b
0c
#19680000
0!
1"
0b
1c
#19840000
1!
0"
1b
0c
#20000000
0!
1"
0b
1c
#20160000
1!
0"
1b
0c
#20320000
0!
1"
0b
1c
#20480000
1!
0"
1b
0c
#20640000
0!
1"
0b
1c
#20800000
1!
0"
1b
0c
b1010101 $
1&
18
1n
0m
1l
0k
1j
0i
1h
0g
1f
1J!
1N!
#20960000
0!
1"
0b
1c
#21120000
1!
0"
1b
0c
0&
0f
0J!
0N!
b1 L!
0*
#21280000
0!
1"
0b
1c
#21440000
1!
0"
1b
0c
1'!
1F!
1g!
#21600000
0!
1"
0b
1c
#21760000
1!
0"
1b
0c
0'!
b0 u!
0v!
b1 r!
0g!
0p!
0'
19
08
16
b1010101 -
0.
b10101010100 ,
#21920000
0!
1"
0b
1c
#22080000
1!
0"
1b
0c
b0 4
0+
b0 5
b1 s!
#22240000
0!
1"
0b
1c
#22400000
1!
0"
1b
0c
b1 5
b10 s!
#22560000
0!
1"
0b
1c
#22720000
1!
0"
1b
0c
b10 5
b11 s!
#22880000
0!
1"
0b
1c
#23040000
1!
0"
1b
0c
b11 5
b100 s!
#23200000
0!
1"
0b
1c
#23360000
1!
0"
1b
0c
b100 5
b101 s!
#23520000
0!
1"
0b
1c
#23680000
1!
0"
1b
0c
b101 5
b110 s!
#23840000
0!
1"
0b
1c
#24000000
1!
0"
1b
0c
b110 5
b111 s!
#24160000
0!
1"
0b
1c
#24320000
1!
0"
1b
0c
b111 5
b1000 s!
#24480000
0!
1"
0b
1c
#24640000
1!
0"
1b
0c
b1000 5
b1001 s!
#24800000
0!
1"
0b
1c
#24960000
1!
0"
1b
0c
b1001 5
b1010 s!
#25120000
0!
1"
0b
1c
#25280000
1!
0"
1b
0c
b1010 5
b1011 s!
#25440000
0!
1"
0b
1c
#25600000
1!
0"
1b
0c
b1011 5
b1100 s!
#25760000
0!
1"
0b
1c
#25920000
1!
0"
1b
0c
b1100 5
b1101 s!
#26080000
0!
1"
0b
1c
#26240000
1!
0"
1b
0c
b1101 5
b0 s!
b10 r!
b111 t!
#26400000
0!
1"
0b
1c
#26560000
1!
0"
1b
0c
b1110 5
b1 4
b0 5
b1 s!
#26720000
0!
1"
0b
1c
#26880000
1!
0"
1b
0c
b1 5
b10 s!
#27040000
0!
1"
0b
1c
#27200000
1!
0"
1b
0c
b10 5
b11 s!
#27360000
0!
1"
0b
1c
#27520000
1!
0"
1b
0c
b11 5
b100 s!
#27680000
0!
1"
0b
1c
#27840000
1!
0"
1b
0c
b100 5
b101 s!
#28000000
0!
1"
0b
1c
#28160000
1!
0"
1b
0c
b101 5
b110 s!
#28320000
0!
1"
0b
1c
#28480000
1!
0"
1b
0c
b110 5
b111 s!
#28640000
0!
1"
0b
1c
#28800000
1!
0"
1b
0c
b111 5
b1000 s!
#28960000
0!
1"
0b
1c
#29120000
1!
0"
1b
0c
b1000 5
b1001 s!
#29280000
0!
1"
0b
1c
#29440000
1!
0"
1b
0c
b1001 5
b1010 s!
#29600000
0!
1"
0b
1c
#29760000
1!
0"
1b
0c
b1010 5
b1011 s!
#29920000
0!
1"
0b
1c
#30080000
1!
0"
1b
0c
b1011 5
b1100 s!
#30240000
0!
1"
0b
1c
#30400000
1!
0"
1b
0c
b1100 5
b1101 s!
#30560000
0!
1"
0b
1c
#30720000
1!
0"
1b
0c
b1101 5
b0 s!
b110 t!
#30880000
0!
1"
0b
1c
#31040000
1!
0"
1b
0c
b1110 5
b10 4
1+
b0 5
b1 3
b1 s!
#31200000
0!
1"
0b
1c
#31360000
1!
0"
1b
0c
b1 5
b10 s!
#31520000
0!
1"
0b
1c
#31680000
1!
0"
1b
0c
b10 5
b11 s!
#31840000
0!
1"
0b
1c
#32000000
1!
0"
1b
0c
b11 5
b100 s!
#32160000
0!
1"
0b
1c
#32320000
1!
0"
1b
0c
b100 5
b101 s!
#32480000
0!
1"
0b
1c
#32640000
1!
0"
1b
0c
b101 5
b110 s!
#32800000
0!
1"
0b
1c
#32960000
1!
0"
1b
0c
b110 5
b111 s!
#33120000
0!
1"
0b
1c
#33280000
1!
0"
1b
0c
b111 5
b1000 s!
#33440000
0!
1"
0b
1c
#33600000
1!
0"
1b
0c
b1000 5
b1001 s!
#33760000
0!
1"
0b
1c
#33920000
1!
0"
1b
0c
b1001 5
b1010 s!
#34080000
0!
1"
0b
1c
#34240000
1!
0"
1b
0c
b1010 5
b1011 s!
#34400000
0!
1"
0b
1c
#34560000
1!
0"
1b
0c
b1011 5
b1100 s!
#34720000
0!
1"
0b
1c
#34880000
1!
0"
1b
0c
b1100 5
b1101 s!
#35040000
0!
1"
0b
1c
#35200000
1!
0"
1b
0c
b1101 5
b0 s!
b101 t!
#35360000
0!
1"
0b
1c
#35520000
1!
0"
1b
0c
b1110 5
b11 4
0+
b0 5
b1 s!
#35680000
0!
1"
0b
1c
#35840000
1!
0"
1b
0c
b1 5
b10 s!
#36000000
0!
1"
0b
1c
#36160000
1!
0"
1b
0c
b10 5
b11 s!
#36320000
0!
1"
0b
1c
#36480000
1!
0"
1b
0c
b11 5
b100 s!
#36640000
0!
1"
0b
1c
#36800000
1!
0"
1b
0c
b100 5
b101 s!
#36960000
0!
1"
0b
1c
b1010101 I
0J
b10101010100 H
b0 4
0:
b0 5
0o
#37120000
1!
0"
1b
0c
b1 5
b110 s!
#37280000
0!
1"
0b
1c
b10 5
b1 #"
#37440000
1!
0"
1b
0c
b11 5
b111 s!
#37600000
0!
1"
0b
1c
b100 5
b1 $"
#37760000
1!
0"
1b
0c
b101 5
b1000 s!
#37920000
0!
1"
0b
1c
b110 5
b10 $"
#38080000
1!
0"
1b
0c
b111 5
b1001 s!
#38240000
0!
1"
0b
1c
b1000 5
b11 $"
#38400000
1!
0"
1b
0c
b1001 5
b1010 s!
#38560000
0!
1"
0b
1c
b1010 5
b100 $"
#38720000
1!
0"
1b
0c
b1011 5
b1011 s!
#38880000
0!
1"
0b
1c
b1100 5
b101 $"
#39040000
1!
0"
1b
0c
b1101 5
b1100 s!
#39200000
0!
1"
0b
1c
b1110 5
b1 4
b0 5
b110 $"
#39360000
1!
0"
1b
0c
b1 5
b1101 s!
#39520000
0!
1"
0b
1c
b10 5
b0 $"
0'"
b10 #"
#39680000
1!
0"
1b
0c
b11 5
b0 s!
b100 t!
#39840000
0!
1"
0b
1c
b100 5
b1 $"
#40000000
1!
0"
1b
0c
b101 5
b1 s!
#40160000
0!
1"
0b
1c
b110 5
b10 $"
#40320000
1!
0"
1b
0c
b111 5
b10 s!
#40480000
0!
1"
0b
1c
b1000 5
b11 $"
#40640000
1!
0"
1b
0c
b1001 5
b11 s!
#40800000
0!
1"
0b
1c
b1010 5
b100 $"
#40960000
1!
0"
1b
0c
b1011 5
b100 s!
#41120000
0!
1"
0b
1c
b1100 5
b101 $"
#41280000
1!
0"
1b
0c
b1101 5
b101 s!
#41440000
0!
1"
0b
1c
b1110 5
b10 4
1:
b0 5
1o
b110 $"
#41600000
1!
0"
1b
0c
b1 5
b110 s!
#41760000
0!
1"
0b
1c
b10 5
b111 $"
#41920000
1!
0"
1b
0c
b11 5
b111 s!
#42080000
0!
1"
0b
1c
b100 5
b1000 $"
#42240000
1!
0"
1b
0c
b101 5
b1000 s!
#42400000
0!
1"
0b
1c
b110 5
b1001 $"
#42560000
1!
0"
1b
0c
b111 5
b1001 s!
#42720000
0!
1"
0b
1c
b1000 5
b1010 $"
#42880000
1!
0"
1b
0c
b1001 5
b1010 s!
#43040000
0!
1"
0b
1c
b1010 5
b1011 $"
#43200000
1!
0"
1b
0c
b1011 5
b1011 s!
#43360000
0!
1"
0b
1c
b1100 5
b1100 $"
#43520000
1!
0"
1b
0c
b1101 5
b1100 s!
#43680000
0!
1"
0b
1c
b1110 5
b11 4
0:
b0 5
0o
b1101 $"
#43840000
1!
0"
1b
0c
b1 5
b1101 s!
#44000000
0!
1"
0b
1c
b10 5
b0 $"
b110 %"
#44160000
1!
0"
1b
0c
b11 5
b0 s!
b11 t!
#44320000
0!
1"
0b
1c
b100 5
b1 $"
#44480000
1!
0"
1b
0c
b101 5
b1 s!
#44640000
0!
1"
0b
1c
b110 5
b10 $"
#44800000
1!
0"
1b
0c
b111 5
b10 s!
#44960000
0!
1"
0b
1c
b1000 5
b11 $"
#45120000
1!
0"
1b
0c
b1001 5
b11 s!
#45280000
0!
1"
0b
1c
b1010 5
b100 $"
#45440000
1!
0"
1b
0c
b1011 5
b100 s!
#45600000
0!
1"
0b
1c
b1100 5
b101 $"
#45760000
1!
0"
1b
0c
b1101 5
b101 s!
#45920000
0!
1"
0b
1c
b1110 5
b100 4
1:
b0 5
1o
b110 $"
#46080000
1!
0"
1b
0c
b1 5
b110 s!
#46240000
0!
1"
0b
1c
b10 5
b111 $"
#46400000
1!
0"
1b
0c
b11 5
b111 s!
#46560000
0!
1"
0b
1c
b100 5
b1000 $"
#46720000
1!
0"
1b
0c
b101 5
b1000 s!
#46880000
0!
1"
0b
1c
b110 5
b1001 $"
#47040000
1!
0"
1b
0c
b111 5
b1001 s!
#47200000
0!
1"
0b
1c
b1000 5
b1010 $"
#47360000
1!
0"
1b
0c
b1001 5
b1010 s!
#47520000
0!
1"
0b
1c
b1010 5
b1011 $"
#47680000
1!
0"
1b
0c
b1011 5
b1011 s!
#47840000
0!
1"
0b
1c
b1100 5
b1100 $"
#48000000
1!
0"
1b
0c
b1101 5
b1100 s!
#48160000
0!
1"
0b
1c
b1110 5
b101 4
0:
b0 5
0o
b1101 $"
#48320000
1!
0"
1b
0c
b1 5
b1101 s!
#48480000
0!
1"
0b
1c
b10 5
b0 $"
b101 %"
#48640000
1!
0"
1b
0c
b11 5
b0 s!
b10 t!
#48800000
0!
1"
0b
1c
b100 5
b1 $"
#48960000
1!
0"
1b
0c
b101 5
b1 s!
#49120000
0!
1"
0b
1c
b110 5
b10 $"
#49280000
1!
0"
1b
0c
b111 5
b10 s!
#49440000
0!
1"
0b
1c
b1000 5
b11 $"
#49600000
1!
0"
1b
0c
b1001 5
b11 s!
#49760000
0!
1"
0b
1c
b1010 5
b100 $"
#49920000
1!
0"
1b
0c
b1011 5
b100 s!
#50080000
0!
1"
0b
1c
b1100 5
b101 $"
#50240000
1!
0"
1b
0c
b1101 5
b101 s!
#50400000
0!
1"
0b
1c
b1110 5
b110 4
1:
b0 5
1o
b110 $"
#50560000
1!
0"
1b
0c
b1 5
b110 s!
#50720000
0!
1"
0b
1c
b10 5
b111 $"
#50880000
1!
0"
1b
0c
b11 5
b111 s!
#51040000
0!
1"
0b
1c
b100 5
b1000 $"
#51200000
1!
0"
1b
0c
b101 5
b1000 s!
#51360000
0!
1"
0b
1c
b110 5
b1001 $"
#51520000
1!
0"
1b
0c
b111 5
b1001 s!
#51680000
0!
1"
0b
1c
b1000 5
b1010 $"
#51840000
1!
0"
1b
0c
b1001 5
b1010 s!
#52000000
0!
1"
0b
1c
b1010 5
b1011 $"
#52160000
1!
0"
1b
0c
b1011 5
b1011 s!
#52320000
0!
1"
0b
1c
b1100 5
b1100 $"
#52480000
1!
0"
1b
0c
b1101 5
b1100 s!
#52640000
0!
1"
0b
1c
b1110 5
b111 4
0:
b0 5
0o
b1101 $"
#52800000
1!
0"
1b
0c
b1 5
b1101 s!
#52960000
0!
1"
0b
1c
b10 5
b0 $"
b100 %"
#53120000
1!
0"
1b
0c
b11 5
b0 s!
b1 t!
#53280000
0!
1"
0b
1c
b100 5
b1 $"
#53440000
1!
0"
1b
0c
b101 5
b1 s!
#53600000
0!
1"
0b
1c
b110 5
b10 $"
#53760000
1!
0"
1b
0c
b111 5
b10 s!
#53920000
0!
1"
0b
1c
b1000 5
b11 $"
#54080000
1!
0"
1b
0c
b1001 5
b11 s!
#54240000
0!
1"
0b
1c
b1010 5
b100 $"
#54400000
1!
0"
1b
0c
b1011 5
b100 s!
#54560000
0!
1"
0b
1c
b1100 5
b101 $"
#54720000
1!
0"
1b
0c
b1101 5
b101 s!
#54880000
0!
1"
0b
1c
b1110 5
b1000 4
1:
b0 5
1o
b110 $"
#55040000
1!
0"
1b
0c
b1 5
b110 s!
#55200000
0!
1"
0b
1c
b10 5
b111 $"
#55360000
1!
0"
1b
0c
b11 5
b111 s!
#55520000
0!
1"
0b
1c
b100 5
b1000 $"
#55680000
1!
0"
1b
0c
b101 5
b1000 s!
#55840000
0!
1"
0b
1c
b110 5
b1001 $"
#56000000
1!
0"
1b
0c
b111 5
b1001 s!
#56160000
0!
1"
0b
1c
b1000 5
b1010 $"
#56320000
1!
0"
1b
0c
b1001 5
b1010 s!
#56480000
0!
1"
0b
1c
b1010 5
b1011 $"
#56640000
1!
0"
1b
0c
b1011 5
b1011 s!
#56800000
0!
1"
0b
1c
b1100 5
b1100 $"
#56960000
1!
0"
1b
0c
b1101 5
b1100 s!
#57120000
0!
1"
0b
1c
b1110 5
b1001 4
0:
b0 5
0o
b1101 $"
#57280000
1!
0"
1b
0c
b1 5
b1101 s!
#57440000
0!
1"
0b
1c
b10 5
b0 $"
b11 %"
#57600000
1!
0"
1b
0c
b11 5
b0 s!
b0 t!
#57760000
0!
1"
0b
1c
b100 5
b1 $"
#57920000
1!
0"
1b
0c
b101 5
b1 s!
#58080000
0!
1"
0b
1c
b110 5
b10 $"
#58240000
1!
0"
1b
0c
b111 5
b10 s!
