AES/TOP/simulation/modelsim/msim_transcript
# do aes_uart_top_run_msim_rtl_verilog.do
# if {[file exists rtl_work]} {
# 	vdel -lib rtl_work -all
# }
# vlib rtl_work
# vmap work rtl_work
# Model Technology ModelSim - Intel FPGA Edition vmap 2020.1 Lib Mapping Utility 2020.02 Feb 28 2020
# vmap work rtl_work 
# Copying /home/maruthi/intelFPGA_lite/20.1/modelsim_ase/linuxaloem/../modelsim.ini to modelsim.ini
# Modifying modelsim.ini
# 
# vlog -vlog01compat -work work +incdir+/home/maruthi/intelFPGA_lite/20.1/quartus/AES/TOP {/home/maruthi/intelFPGA_lite/20.1/quartus/AES/TOP/aes_uart_top.v}
# Model Technology ModelSim - Intel FPGA Edition vlog 2020.1 Compiler 2020.02 Feb 28 2020
# Start time: 18:05:07 on Mar 05,2026
# vlog -reportprogress 300 -vlog01compat -work work "+incdir+/home/maruthi/intelFPGA_lite/20.1/quartus/AES/TOP" /home/maruthi/intelFPGA_lite/20.1/quartus/AES/TOP/aes_uart_top.v 
# -- Compiling module aes_uart_top
# 
# Top level modules:
# 	aes_uart_top
# End time: 18:05:07 on Mar 05,2026, Elapsed time: 0:00:00
# Errors: 0, Warnings: 0
# vlog -vlog01compat -work work +incdir+/home/maruthi/intelFPGA_lite/20.1/quartus/AES/AES_ENCRYPTION/code {/home/maruthi/intelFPGA_lite/20.1/quartus/AES/AES_ENCRYPTION/code/AES_TOP.v}
# Model Technology ModelSim - Intel FPGA Edition vlog 2020.1 Compiler 2020.02 Feb 28 2020
# Start time: 18:05:07 on Mar 05,2026
# vlog -reportprogress 300 -vlog01compat -work work "+incdir+/home/maruthi/intelFPGA_lite/20.1/quartus/AES/AES_ENCRYPTION/code" /home/maruthi/intelFPGA_lite/20.1/quartus/AES/AES_ENCRYPTION/code/AES_TOP.v 
# -- Compiling module AES_TOP
# 
# Top level modules:
# 	AES_TOP
# End time: 18:05:07 on Mar 05,2026, Elapsed time: 0:00:00
# Errors: 0, Warnings: 0
# vlog -vlog01compat -work work +incdir+/home/maruthi/intelFPGA_lite/20.1/quartus/AES/AES_ENCRYPTION/code {/home/maruthi/intelFPGA_lite/20.1/quartus/AES/AES_ENCRYPTION/code/keyExpansion.v}
# Model Technology ModelSim - Intel FPGA Edition vlog 2020.1 Compiler 2020.02 Feb 28 2020
# Start time: 18:05:07 on Mar 05,2026
# vlog -reportprogress 300 -vlog01compat -work work "+incdir+/home/maruthi/intelFPGA_lite/20.1/quartus/AES/AES_ENCRYPTION/code" /home/maruthi/intelFPGA_lite/20.1/quartus/AES/AES_ENCRYPTION/code/keyExpansion.v 
# -- Compiling module keyExpansion
# 
# Top level modules:
# 	keyExpansion
# End time: 18:05:07 on Mar 05,2026, Elapsed time: 0:00:00
# Errors: 0, Warnings: 0
# vlog -vlog01compat -work work +incdir+/home/maruthi/intelFPGA_lite/20.1/quartus/AES/AES_ENCRYPTION/code {/home/maruthi/intelFPGA_lite/20.1/quartus/AES/AES_ENCRYPTION/code/mixColumns.v}
# Model Technology ModelSim - Intel FPGA Edition vlog 2020.1 Compiler 2020.02 Feb 28 2020
# Start time: 18:05:07 on Mar 05,2026
# vlog -reportprogress 300 -vlog01compat -work work "+incdir+/home/maruthi/intelFPGA_lite/20.1/quartus/AES/AES_ENCRYPTION/code" /home/maruthi/intelFPGA_lite/20.1/quartus/AES/AES_ENCRYPTION/code/mixColumns.v 
# -- Compiling module mixColumns
# 
# Top level modules:
# 	mixColumns
# End time: 18:05:08 on Mar 05,2026, Elapsed time: 0:00:01
# Errors: 0, Warnings: 0
# vlog -vlog01compat -work work +incdir+/home/maruthi/intelFPGA_lite/20.1/quartus/AES/AES_ENCRYPTION/code {/home/maruthi/intelFPGA_lite/20.1/quartus/AES/AES_ENCRYPTION/code/sbox.v}
# Model Technology ModelSim - Intel FPGA Edition vlog 2020.1 Compiler 2020.02 Feb 28 2020
# Start time: 18:05:08 on Mar 05,2026
# vlog -reportprogress 300 -vlog01compat -work work "+incdir+/home/maruthi/intelFPGA_lite/20.1/quartus/AES/AES_ENCRYPTION/code" /home/maruthi/intelFPGA_lite/20.1/quartus/AES/AES_ENCRYPTION/code/sbox.v 
# -- Compiling module sbox
# 
# Top level modules:
# 	sbox
# End time: 18:05:08 on Mar 05,2026, Elapsed time: 0:00:00
# Errors: 0, Warnings: 0
# vlog -vlog01compat -work work +incdir+/home/maruthi/intelFPGA_lite/20.1/quartus/AES/AES_ENCRYPTION/code {/home/maruthi/intelFPGA_lite/20.1/quartus/AES/AES_ENCRYPTION/code/shiftRows.v}
# Model Technology ModelSim - Intel FPGA Edition vlog 2020.1 Compiler 2020.02 Feb 28 2020
# Start time: 18:05:08 on Mar 05,2026
# vlog -reportprogress 300 -vlog01compat -work work "+incdir+/home/maruthi/intelFPGA_lite/20.1/quartus/AES/AES_ENCRYPTION/code" /home/maruthi/intelFPGA_lite/20.1/quartus/AES/AES_ENCRYPTION/code/shiftRows.v 
# -- Compiling module shiftRows
# 
# Top level modules:
# 	shiftRows
# End time: 18:05:08 on Mar 05,2026, Elapsed time: 0:00:00
# Errors: 0, Warnings: 0
# vlog -vlog01compat -work work +incdir+/home/maruthi/intelFPGA_lite/20.1/quartus/AES/AES_ENCRYPTION/code {/home/maruthi/intelFPGA_lite/20.1/quartus/AES/AES_ENCRYPTION/code/subBytes.v}
# Model Technology ModelSim - Intel FPGA Edition vlog 2020.1 Compiler 2020.02 Feb 28 2020
# Start time: 18:05:08 on Mar 05,2026
# vlog -reportprogress 300 -vlog01compat -work work "+incdir+/home/maruthi/intelFPGA_lite/20.1/quartus/AES/AES_ENCRYPTION/code" /home/maruthi/intelFPGA_lite/20.1/quartus/AES/AES_ENCRYPTION/code/subBytes.v 
# -- Compiling module subBytes
# 
# Top level modules:
# 	subBytes
# End time: 18:05:08 on Mar 05,2026, Elapsed time: 0:00:00
# Errors: 0, Warnings: 0
# vlog -vlog01compat -work work +incdir+/home/maruthi/intelFPGA_lite/20.1/quartus/AES/UART_buffer/code {/home/maruthi/intelFPGA_lite/20.1/quartus/AES/UART_buffer/code/Buffer_top.v}
# Model Technology ModelSim - Intel FPGA Edition vlog 2020.1 Compiler 2020.02 Feb 28 2020
# Start time: 18:05:08 on Mar 05,2026
# vlog -reportprogress 300 -vlog01compat -work work "+incdir+/home/maruthi/intelFPGA_lite/20.1/quartus/AES/UART_buffer/code" /home/maruthi/intelFPGA_lite/20.1/quartus/AES/UART_buffer/code/Buffer_top.v 
# -- Compiling module Buffer_top
# 
# Top level modules:
# 	Buffer_top
# End time: 18:05:08 on Mar 05,2026, Elapsed time: 0:00:00
# Errors: 0, Warnings: 0
# vlog -vlog01compat -work work +incdir+/home/maruthi/intelFPGA_lite/20.1/quartus/AES/UART_buffer/code {/home/maruthi/intelFPGA_lite/20.1/quartus/AES/UART_buffer/code/fifo_tx.v}
# Model Technology ModelSim - Intel FPGA Edition vlog 2020.1 Compiler 2020.02 Feb 28 2020
# Start time: 18:05:08 on Mar 05,2026
# vlog -reportprogress 300 -vlog01compat -work work "+incdir+/home/maruthi/intelFPGA_lite/20.1/quartus/AES/UART_buffer/code" /home/maruthi/intelFPGA_lite/20.1/quartus/AES/UART_buffer/code/fifo_tx.v 
# -- Compiling module fifo_tx
# 
# Top level modules:
# 	fifo_tx
# End time: 18:05:08 on Mar 05,2026, Elapsed time: 0:00:00
# Errors: 0, Warnings: 0
# vlog -vlog01compat -work work +incdir+/home/maruthi/intelFPGA_lite/20.1/quartus/AES/UART_buffer/code {/home/maruthi/intelFPGA_lite/20.1/quartus/AES/UART_buffer/code/UART_TX.v}
# Model Technology ModelSim - Intel FPGA Edition vlog 2020.1 Compiler 2020.02 Feb 28 2020
# Start time: 18:05:08 on Mar 05,2026
# vlog -reportprogress 300 -vlog01compat -work work "+incdir+/home/maruthi/intelFPGA_lite/20.1/quartus/AES/UART_buffer/code" /home/maruthi/intelFPGA_lite/20.1/quartus/AES/UART_buffer/code/UART_TX.v 
# -- Compiling module uart_tx
# 
# Top level modules:
# 	uart_tx
# End time: 18:05:08 on Mar 05,2026, Elapsed time: 0:00:00
# Errors: 0, Warnings: 0
# vlog -vlog01compat -work work +incdir+/home/maruthi/intelFPGA_lite/20.1/quartus/AES/UART_buffer/code {/home/maruthi/intelFPGA_lite/20.1/quartus/AES/UART_buffer/code/UART_RX.v}
# Model Technology ModelSim - Intel FPGA Edition vlog 2020.1 Compiler 2020.02 Feb 28 2020
# Start time: 18:05:08 on Mar 05,2026
# vlog -reportprogress 300 -vlog01compat -work work "+incdir+/home/maruthi/intelFPGA_lite/20.1/quartus/AES/UART_buffer/code" /home/maruthi/intelFPGA_lite/20.1/quartus/AES/UART_buffer/code/UART_RX.v 
# -- Compiling module uart_rx
# 
# Top level modules:
# 	uart_rx
# End time: 18:05:08 on Mar 05,2026, Elapsed time: 0:00:00
# Errors: 0, Warnings: 0
# vlog -vlog01compat -work work +incdir+/home/maruthi/intelFPGA_lite/20.1/quartus/AES/UART_buffer/code {/home/maruthi/intelFPGA_lite/20.1/quartus/AES/UART_buffer/code/fifo_rx.v}
# Model Technology ModelSim - Intel FPGA Edition vlog 2020.1 Compiler 2020.02 Feb 28 2020
# Start time: 18:05:08 on Mar 05,2026
# vlog -reportprogress 300 -vlog01compat -work work "+incdir+/home/maruthi/intelFPGA_lite/20.1/quartus/AES/UART_buffer/code" /home/maruthi/intelFPGA_lite/20.1/quartus/AES/UART_buffer/code/fifo_rx.v 
# -- Compiling module fifo_rx
# 
# Top level modules:
# 	fifo_rx
# End time: 18:05:08 on Mar 05,2026, Elapsed time: 0:00:00
# Errors: 0, Warnings: 0
# vlog -vlog01compat -work work +incdir+/home/maruthi/intelFPGA_lite/20.1/quartus/AES/AES_DECRYPTION/code {/home/maruthi/intelFPGA_lite/20.1/quartus/AES/AES_DECRYPTION/code/ADS_TOP.v}
# Model Technology ModelSim - Intel FPGA Edition vlog 2020.1 Compiler 2020.02 Feb 28 2020
# Start time: 18:05:08 on Mar 05,2026
# vlog -reportprogress 300 -vlog01compat -work work "+incdir+/home/maruthi/intelFPGA_lite/20.1/quartus/AES/AES_DECRYPTION/code" /home/maruthi/intelFPGA_lite/20.1/quartus/AES/AES_DECRYPTION/code/ADS_TOP.v 
# -- Compiling module ADS_TOP
# 
# Top level modules:
# 	ADS_TOP
# End time: 18:05:08 on Mar 05,2026, Elapsed time: 0:00:00
# Errors: 0, Warnings: 0
# vlog -vlog01compat -work work +incdir+/home/maruthi/intelFPGA_lite/20.1/quartus/AES/AES_DECRYPTION/code {/home/maruthi/intelFPGA_lite/20.1/quartus/AES/AES_DECRYPTION/code/inverseShiftrows.v}
# Model Technology ModelSim - Intel FPGA Edition vlog 2020.1 Compiler 2020.02 Feb 28 2020
# Start time: 18:05:08 on Mar 05,2026
# vlog -reportprogress 300 -vlog01compat -work work "+incdir+/home/maruthi/intelFPGA_lite/20.1/quartus/AES/AES_DECRYPTION/code" /home/maruthi/intelFPGA_lite/20.1/quartus/AES/AES_DECRYPTION/code/inverseShiftrows.v 
# -- Compiling module inverseShiftRows
# 
# Top level modules:
# 	inverseShiftRows
# End time: 18:05:08 on Mar 05,2026, Elapsed time: 0:00:00
# Errors: 0, Warnings: 0
# vlog -vlog01compat -work work +incdir+/home/maruthi/intelFPGA_lite/20.1/quartus/AES/AES_DECRYPTION/code {/home/maruthi/intelFPGA_lite/20.1/quartus/AES/AES_DECRYPTION/code/inverseSbox.v}
# Model Technology ModelSim - Intel FPGA Edition vlog 2020.1 Compiler 2020.02 Feb 28 2020
# Start time: 18:05:08 on Mar 05,2026
# vlog -reportprogress 300 -vlog01compat -work work "+incdir+/home/maruthi/intelFPGA_lite/20.1/quartus/AES/AES_DECRYPTION/code" /home/maruthi/intelFPGA_lite/20.1/quartus/AES/AES_DECRYPTION/code/inverseSbox.v 
# -- Compiling module inverseSbox
# 
# Top level modules:
# 	inverseSbox
# End time: 18:05:08 on Mar 05,2026, Elapsed time: 0:00:00
# Errors: 0, Warnings: 0
# vlog -vlog01compat -work work +incdir+/home/maruthi/intelFPGA_lite/20.1/quartus/AES/AES_DECRYPTION/code {/home/maruthi/intelFPGA_lite/20.1/quartus/AES/AES_DECRYPTION/code/inverseSubBytes.v}
# Model Technology ModelSim - Intel FPGA Edition vlog 2020.1 Compiler 2020.02 Feb 28 2020
# Start time: 18:05:08 on Mar 05,2026
# vlog -reportprogress 300 -vlog01compat -work work "+incdir+/home/maruthi/intelFPGA_lite/20.1/quartus/AES/AES_DECRYPTION/code" /home/maruthi/intelFPGA_lite/20.1/quartus/AES/AES_DECRYPTION/code/inverseSubBytes.v 
# -- Compiling module inverseSubBytes
# 
# Top level modules:
# 	inverseSubBytes
# End time: 18:05:08 on Mar 05,2026, Elapsed time: 0:00:00
# Errors: 0, Warnings: 0
# vlog -vlog01compat -work work +incdir+/home/maruthi/intelFPGA_lite/20.1/quartus/AES/AES_DECRYPTION/code {/home/maruthi/intelFPGA_lite/20.1/quartus/AES/AES_DECRYPTION/code/invMixColumns.v}
# Model Technology ModelSim - Intel FPGA Edition vlog 2020.1 Compiler 2020.02 Feb 28 2020
# Start time: 18:05:08 on Mar 05,2026
# vlog -reportprogress 300 -vlog01compat -work work "+incdir+/home/maruthi/intelFPGA_lite/20.1/quartus/AES/AES_DECRYPTION/code" /home/maruthi/intelFPGA_lite/20.1/quartus/AES/AES_DECRYPTION/code/invMixColumns.v 
# -- Compiling module invMixColumns
# 
# Top level modules:
# 	invMixColumns
# End time: 18:05:08 on Mar 05,2026, Elapsed time: 0:00:00
# Errors: 0, Warnings: 0
# 
# vlog -vlog01compat -work work +incdir+/home/maruthi/intelFPGA_lite/20.1/quartus/AES/TOP/../testbench {/home/maruthi/intelFPGA_lite/20.1/quartus/AES/TOP/../testbench/tb.v}
# Model Technology ModelSim - Intel FPGA Edition vlog 2020.1 Compiler 2020.02 Feb 28 2020
# Start time: 18:05:08 on Mar 05,2026
# vlog -reportprogress 300 -vlog01compat -work work "+incdir+/home/maruthi/intelFPGA_lite/20.1/quartus/AES/TOP/../testbench" /home/maruthi/intelFPGA_lite/20.1/quartus/AES/TOP/../testbench/tb.v 
# -- Compiling module tb
# 
# Top level modules:
# 	tb
# End time: 18:05:08 on Mar 05,2026, Elapsed time: 0:00:00
# Errors: 0, Warnings: 0
# 
# vsim -t 1ps -L altera_ver -L lpm_ver -L sgate_ver -L altera_mf_ver -L altera_lnsim_ver -L cyclonev_ver -L cyclonev_hssi_ver -L cyclonev_pcie_hip_ver -L rtl_work -L work -voptargs="+acc"  tb
# vsim -t 1ps -L altera_ver -L lpm_ver -L sgate_ver -L altera_mf_ver -L altera_lnsim_ver -L cyclonev_ver -L cyclonev_hssi_ver -L cyclonev_pcie_hip_ver -L rtl_work -L work -voptargs=""+acc"" tb 
# Start time: 18:05:08 on Mar 05,2026
# Loading work.tb
# Loading work.aes_uart_top
# Loading work.AES_TOP
# Loading work.keyExpansion
# Loading work.subBytes
# Loading work.shiftRows
# Loading work.mixColumns
# Loading work.Buffer_top
# Loading work.fifo_tx
# Loading work.uart_tx
# Loading work.uart_rx
# Loading work.fifo_rx
# Loading work.ADS_TOP
# Loading work.inverseShiftRows
# Loading work.inverseSubBytes
# Loading work.invMixColumns
# Loading work.sbox
# Loading work.inverseSbox
# ** Warning: (vsim-2685) [TFMPC] - Too few port connections for 'u_uart_buffer'.  Expected 25, found 24.
#    Time: 0 ps  Iteration: 0  Instance: /tb/dut/u_uart_buffer File: /home/maruthi/intelFPGA_lite/20.1/quartus/AES/TOP/aes_uart_top.v Line: 176
# ** Warning: (vsim-3015) [PCDPC] - Port size (5) does not match connection size (4) for port 'byte_counter'. The port definition is at: /home/maruthi/intelFPGA_lite/20.1/quartus/AES/UART_buffer/code/Buffer_top.v(26).
#    Time: 0 ps  Iteration: 0  Instance: /tb/dut/u_uart_buffer File: /home/maruthi/intelFPGA_lite/20.1/quartus/AES/TOP/aes_uart_top.v Line: 176
# ** Warning: (vsim-3722) /home/maruthi/intelFPGA_lite/20.1/quartus/AES/TOP/aes_uart_top.v(176): [TFMPC] - Missing connection for port 'ft_ready'.
# 
# add wave *
# view structure
# .main_pane.structure.interior.cs.body.struct
# view signals
# .main_pane.objects.interior.cs.body.tree
# run -all
# time : 0 | Entered reset block | Encryption
# time:0, Entered reset block | Decryption | state=xxxxxxxxxxxxxxxxxxxxxxxxxxxxxxxx
# time: 10000 | in_flight : 0 | latency_cnt : 0
# time:                30000, IDLE:Starting encryption | encryption | plaintext:0
# time:               150000, Inside DONE state, ciphertext=66e94bd4ef8a2c3b884cfa59ca342b2e, round=10, done:1
# Time:            800480000 | UART_RX | Received 16 bytes. Byte counter reset. rx_block_ok asserted. byte_counter: 15
# time:801120000 | RD_RX is asserted
# time:801760000 | rx_byte_cnt : 0 | dout : 66
# time:802080000 | rx_byte_cnt : 1 | dout : e9
# time:802400000 | rx_byte_cnt : 2 | dout : 4b
# time:802720000 | rx_byte_cnt : 3 | dout : d4
# time:803040000 | rx_byte_cnt : 4 | dout : ef
# time:803360000 | rx_byte_cnt : 5 | dout : 8a
# time:803680000 | rx_byte_cnt : 6 | dout : 2c
# time:804000000 | rx_byte_cnt : 7 | dout : 3b
# time:804320000 | rx_byte_cnt : 8 | dout : 88
# time:804640000 | rx_byte_cnt : 9 | dout : 4c
# time:804960000 | rx_byte_cnt : 10 | dout : fa
# time:805280000 | rx_byte_cnt : 11 | dout : 59
# time:805600000 | rx_byte_cnt : 12 | dout : ca
# time:805920000 | rx_byte_cnt : 13 | dout : 34
# time:806240000 | rx_byte_cnt : 14 | dout : 2b
# time:806560000 | rx_byte_cnt is made zero and dec_block_ready is asserted. dout : 2e
# time:806560000 | dec_block_ready is asserted | rx_block : 0
# time:806590000 | RX_wait state 
# time:            806610000, IDLE:Starting decryption, ciphertext=66e94bd4ef8a2c3b884cfa59ca342b2e, key=00000000000000000000000000000000,
# time:            806620000, LOAD: AddRoundKey(10), state=00000000000000000000000000000000,round_key : b4ef5bcb3e92e21123e951cf6f8f188e
# time:            806630000, INV ROUND 9, state=d206101fd118ce2aaba5ab96a5bb33a0, round_key : b1d4d8e28a7db9da1d7bb3de4c664941
# time:            806640000, INV ROUND 8, state=26fdb42a7dba1febac7b64b93194fb5b, round_key : 0ef903333ba9613897060a04511dfa9f
# time:            806650000, INV ROUND 7, state=a93f7653a44f0ca650d9698422acd80c, round_key : 217517873550620bacaf6b3cc61bf09b
# time:            806660000, INV ROUND 6, state=f2bc7ccac5150e8898a6746e3b893490, round_key : ec614b851425758c99ff09376ab49ba7
# time:            806670000, INV ROUND 5, state=486cea26fc6b1d50f3b684c3b6a89027, round_key : 7f2e2b88f8443e098dda7cbbf34b9290
# time:            806680000, INV ROUND 4, state=62be79cf9ae002bb53b8bd3b9db5d5ba, round_key : ee06da7b876a1581759e42b27e91ee2b
# time:            806690000, INV ROUND 3, state=340d605a022fd91cd6600d3f30d8445c, round_key : 90973450696ccffaf2f457330b0fac99
# time:            806700000, INV ROUND 2, state=b417699b4969173db417699b4969173d, round_key : 9b9898c9f9fbfbaa9b9898c9f9fbfbaa
# time:            806710000, INV ROUND 1, state=7c6363637c6363637c6363637c636363, round_key : 62636363626363636263636362636363
# time:            806720000, FINAL INV ROUND, state=63636363636363636363636363636363, isb_out=63636363636363636363636363636363, round_kkey : 00000000000000000000000000000000
# time:            806730000, DONE, plaintext=00000000000000000000000000000000, imc_in=52525252525252525252525252525252, round_key=00000000000000000000000000000000
# time : 806750000 | in_flight is made zero | Entered done handshake block. pt=00000000000000000000000000000000
# ❌ LATENCY ERROR exp=80670 got=80673
# S.No: 0 PASS
# Time:806750000 | Plaintext  : 00000000000000000000000000000000
# Time:806750000 |  Expected   : 00000000000000000000000000000000
# time: 806760000 | in_flight : 0 | latency_cnt : 80673
# time:            806780000, IDLE:Starting encryption | encryption | plaintext:0
# time:            806900000, Inside DONE state, ciphertext=66e94bd4ef8a2c3b884cfa59ca342b2e, round=10, done:1
# Time:           1607200000 | UART_RX | Received 16 bytes. Byte counter reset. rx_block_ok asserted. byte_counter: 15
# time:1607840000 | RD_RX is asserted
# time:1608480000 | rx_byte_cnt : 0 | dout : 66
# time:1608800000 | rx_byte_cnt : 1 | dout : e9
# time:1609120000 | rx_byte_cnt : 2 | dout : 4b
# time:1609440000 | rx_byte_cnt : 3 | dout : d4
# time:1609760000 | rx_byte_cnt : 4 | dout : ef
# time:1610080000 | rx_byte_cnt : 5 | dout : 8a
# time:1610400000 | rx_byte_cnt : 6 | dout : 2c
# time:1610720000 | rx_byte_cnt : 7 | dout : 3b
# time:1611040000 | rx_byte_cnt : 8 | dout : 88
# time:1611360000 | rx_byte_cnt : 9 | dout : 4c
# time:1611680000 | rx_byte_cnt : 10 | dout : fa
# time:1612000000 | rx_byte_cnt : 11 | dout : 59
# time:1612320000 | rx_byte_cnt : 12 | dout : ca
# time:1612640000 | rx_byte_cnt : 13 | dout : 34
# time:1612960000 | rx_byte_cnt : 14 | dout : 2b
# time:1613280000 | rx_byte_cnt is made zero and dec_block_ready is asserted. dout : 2e
# time:1613280000 | dec_block_ready is asserted | rx_block : 2e
# time:1613310000 | RX_wait state 
# time:           1613330000, IDLE:Starting decryption, ciphertext=66e94bd4ef8a2c3b884cfa59ca342b2e, key=00000000000000000000000000000000,
# time:           1613340000, LOAD: AddRoundKey(10), state=00000000000000000000000000000000,round_key : b4ef5bcb3e92e21123e951cf6f8f188e
# time:           1613350000, INV ROUND 9, state=d206101fd118ce2aaba5ab96a5bb33a0, round_key : b1d4d8e28a7db9da1d7bb3de4c664941
# time:           1613360000, INV ROUND 8, state=26fdb42a7dba1febac7b64b93194fb5b, round_key : 0ef903333ba9613897060a04511dfa9f
# time:           1613370000, INV ROUND 7, state=a93f7653a44f0ca650d9698422acd80c, round_key : 217517873550620bacaf6b3cc61bf09b
# time:           1613380000, INV ROUND 6, state=f2bc7ccac5150e8898a6746e3b893490, round_key : ec614b851425758c99ff09376ab49ba7
# time:           1613390000, INV ROUND 5, state=486cea26fc6b1d50f3b684c3b6a89027, round_key : 7f2e2b88f8443e098dda7cbbf34b9290
# time:           1613400000, INV ROUND 4, state=62be79cf9ae002bb53b8bd3b9db5d5ba, round_key : ee06da7b876a1581759e42b27e91ee2b
# time:           1613410000, INV ROUND 3, state=340d605a022fd91cd6600d3f30d8445c, round_key : 90973450696ccffaf2f457330b0fac99
# time:           1613420000, INV ROUND 2, state=b417699b4969173db417699b4969173d, round_key : 9b9898c9f9fbfbaa9b9898c9f9fbfbaa
# time:           1613430000, INV ROUND 1, state=7c6363637c6363637c6363637c636363, round_key : 62636363626363636263636362636363
# time:           1613440000, FINAL INV ROUND, state=63636363636363636363636363636363, isb_out=63636363636363636363636363636363, round_kkey : 00000000000000000000000000000000
# time:           1613450000, DONE, plaintext=00000000000000000000000000000000, imc_in=52525252525252525252525252525252, round_key=00000000000000000000000000000000
# time : 1613470000 | in_flight is made zero | Entered done handshake block. pt=00000000000000000000000000000000
# S.No: 1 PASS
# Time:1613470000 | Plaintext  : 00000000000000000000000000000000
# Time:1613470000 |  Expected   : 00000000000000000000000000000000
# time: 1613480000 | in_flight : 0 | latency_cnt : 80670
# time:           1613500000, IDLE:Starting encryption | encryption | plaintext:1
# time:           1613620000, Inside DONE state, ciphertext=58e2fccefa7e3061367f1d57a4e7455a, round=10, done:1
# Time:           2413920000 | UART_RX | Received 16 bytes. Byte counter reset. rx_block_ok asserted. byte_counter: 15
# time:2414560000 | RD_RX is asserted
# time:2415200000 | rx_byte_cnt : 0 | dout : 58
# time:2415520000 | rx_byte_cnt : 1 | dout : e2
# time:2415840000 | rx_byte_cnt : 2 | dout : fc
# time:2416160000 | rx_byte_cnt : 3 | dout : ce
# time:2416480000 | rx_byte_cnt : 4 | dout : fa
# time:2416800000 | rx_byte_cnt : 5 | dout : 7e
# time:2417120000 | rx_byte_cnt : 6 | dout : 30
# time:2417440000 | rx_byte_cnt : 7 | dout : 61
# time:2417760000 | rx_byte_cnt : 8 | dout : 36
# time:2418080000 | rx_byte_cnt : 9 | dout : 7f
# time:2418400000 | rx_byte_cnt : 10 | dout : 1d
# time:2418720000 | rx_byte_cnt : 11 | dout : 57
# time:2419040000 | rx_byte_cnt : 12 | dout : a4
# time:2419360000 | rx_byte_cnt : 13 | dout : e7
# time:2419680000 | rx_byte_cnt : 14 | dout : 45
# time:2420000000 | rx_byte_cnt is made zero and dec_block_ready is asserted. dout : 5a
# time:2420000000 | dec_block_ready is asserted | rx_block : 2e
# time:2420030000 | RX_wait state 
# time:           2420050000, IDLE:Starting decryption, ciphertext=58e2fccefa7e3061367f1d57a4e7455a, key=00000000000000000000000000000000,
# time:           2420060000, LOAD: AddRoundKey(10), state=00000000000000000000000000000000,round_key : b4ef5bcb3e92e21123e951cf6f8f188e
# time:           2420070000, INV ROUND 9, state=ec0da705c4ecd27015964c98cb685dd4, round_key : b1d4d8e28a7db9da1d7bb3de4c664941
# time:           2420080000, INV ROUND 8, state=1bd1fb9735e3184e090f6f5e2a36071c, round_key : 0ef903333ba9613897060a04511dfa9f
# time:           2420090000, INV ROUND 7, state=f7a296d49b59f7d3bc936872af6c5267, round_key : 217517873550620bacaf6b3cc61bf09b
# time:           2420100000, INV ROUND 6, state=1d12f2f986723a662059a6d9656115a1, round_key : ec614b851425758c99ff09376ab49ba7
# time:           2420110000, INV ROUND 5, state=04bb1ef29bc1dc61262033d245c1b1b5, round_key : 7f2e2b88f8443e098dda7cbbf34b9290
# time:           2420120000, INV ROUND 4, state=faf0a10ac77bccc4c05051944fa0f709, round_key : ee06da7b876a1581759e42b27e91ee2b
# time:           2420130000, INV ROUND 3, state=7fc1f0ac1b8fb9b3a717090fbcbc3969, round_key : 90973450696ccffaf2f457330b0fac99
# time:           2420140000, INV ROUND 2, state=57b12eb39d4c36ee6a5787d1be87df59, round_key : 9b9898c9f9fbfbaa9b9898c9f9fbfbaa
# time:           2420150000, INV ROUND 1, state=726363637c6363b27c63fd637cc06363, round_key : 62636363626363636263636362636363
# time:           2420160000, FINAL INV ROUND, state=6363637c636363636363636363636363, isb_out=6363636363636363636363636363637c, round_kkey : 00000000000000000000000000000000
# time:           2420170000, DONE, plaintext=00000000000000000000000000000001, imc_in=52525252525252525252520952525252, round_key=00000000000000000000000000000000
# time : 2420190000 | in_flight is made zero | Entered done handshake block. pt=00000000000000000000000000000001
# S.No: 2 PASS
# Time:2420190000 | Plaintext  : 00000000000000000000000000000001
# Time:2420190000 |  Expected   : 00000000000000000000000000000001
# time: 2420200000 | in_flight : 0 | latency_cnt : 80670
# time:           2420220000, IDLE:Starting encryption | encryption | plaintext:2
# time:           2420340000, Inside DONE state, ciphertext=0388dace60b6a392f328c2b971b2fe78, round=10, done:1
# Time:           3220640000 | UART_RX | Received 16 bytes. Byte counter reset. rx_block_ok asserted. byte_counter: 15
# time:3221280000 | RD_RX is asserted
# time:3221920000 | rx_byte_cnt : 0 | dout : 3
# time:3222240000 | rx_byte_cnt : 1 | dout : 88
# time:3222560000 | rx_byte_cnt : 2 | dout : da
# time:3222880000 | rx_byte_cnt : 3 | dout : ce
# time:3223200000 | rx_byte_cnt : 4 | dout : 60
# time:3223520000 | rx_byte_cnt : 5 | dout : b6
# time:3223840000 | rx_byte_cnt : 6 | dout : a3
# time:3224160000 | rx_byte_cnt : 7 | dout : 92
# time:3224480000 | rx_byte_cnt : 8 | dout : f3
# time:3224800000 | rx_byte_cnt : 9 | dout : 28
# time:3225120000 | rx_byte_cnt : 10 | dout : c2
# time:3225440000 | rx_byte_cnt : 11 | dout : b9
# time:3225760000 | rx_byte_cnt : 12 | dout : 71
# time:3226080000 | rx_byte_cnt : 13 | dout : b2
# time:3226400000 | rx_byte_cnt : 14 | dout : fe
# time:3226720000 | rx_byte_cnt is made zero and dec_block_ready is asserted. dout : 78
# time:3226720000 | dec_block_ready is asserted | rx_block : 5a
# time:3226750000 | RX_wait state 
# time:           3226770000, IDLE:Starting decryption, ciphertext=0388dace60b6a392f328c2b971b2fe78, key=00000000000000000000000000000000,
# time:           3226780000, LOAD: AddRoundKey(10), state=00000000000000000000000000000001,round_key : b4ef5bcb3e92e21123e951cf6f8f188e
# time:           3226790000, INV ROUND 9, state=b76781055e244183d0c193761e3de6f6, round_key : b1d4d8e28a7db9da1d7bb3de4c664941
# time:           3226800000, INV ROUND 8, state=e290bc59d0cf6284f7f7a72d8bf03497, round_key : 0ef903333ba9613897060a04511dfa9f
# time:           3226810000, INV ROUND 7, state=0c06e9ce0ddcdae498816d6f73b743f8, round_key : 217517873550620bacaf6b3cc61bf09b
# time:           3226820000, INV ROUND 6, state=d4d2205e6e26deaef3ba630520869f07, round_key : ec614b851425758c99ff09376ab49ba7
# time:           3226830000, INV ROUND 5, state=48878671f9f8fc5743a82ba9ac537bf3, round_key : 7f2e2b88f8443e098dda7cbbf34b9290
# time:           3226840000, INV ROUND 4, state=e89a36e342f88d8b11bb2d30db99490d, round_key : ee06da7b876a1581759e42b27e91ee2b
# time:           3226850000, INV ROUND 3, state=8d7313a1b05758ab565121e86974ad02, round_key : 90973450696ccffaf2f457330b0fac99
# time:           3226860000, INV ROUND 2, state=6470dfa30d8572692fe4785afa78f37b, round_key : 9b9898c9f9fbfbaa9b9898c9f9fbfbaa
# time:           3226870000, INV ROUND 1, state=596363637c6363347c63eb637cfa6363, round_key : 62636363626363636263636362636363
# time:           3226880000, FINAL INV ROUND, state=63636377636363636363636363636363, isb_out=63636363636363636363636363636377, round_kkey : 00000000000000000000000000000000
# time:           3226890000, DONE, plaintext=00000000000000000000000000000002, imc_in=52525252525252525252526a52525252, round_key=00000000000000000000000000000000
